"","hotel_name","overall","value","rooms","location","cleanliness","check_in_front_desk","service","business_service","sentiment","overall_pred"
"1","hotel_100504",4.561,4.366,4.488,4.439,4.756,4.707,4.585,4.341,4.195,4.561
"2","hotel_100505",3.447,3.447,3.526,4.447,3.816,3.658,3.684,3.474,3.816,3.579
"3","hotel_100506",1.000,1.200,1.000,4.200,1.400,2.200,1.800,1.000,2.600,1.000
"4","hotel_100507",4.553,4.237,4.632,4.763,4.763,4.684,4.605,4.342,4.211,4.579
"5","hotel_100509",4.696,4.870,4.565,4.652,4.826,4.609,4.522,4.130,4.000,4.783
"6","hotel_100527",3.727,3.591,3.864,4.045,4.182,3.773,4.000,3.136,3.727,3.818
"7","hotel_100537",3.700,4.000,3.300,4.300,3.900,4.000,4.200,3.400,3.900,3.900
"8","hotel_100540",4.250,4.375,4.062,4.438,4.312,4.375,4.312,4.125,4.062,4.375
"9","hotel_100542",4.326,4.196,4.239,4.848,4.609,4.522,4.609,4.283,4.326,4.522
"10","hotel_100544",3.977,4.318,3.545,4.636,4.114,4.159,3.932,3.500,4.068,4.091
"11","hotel_100547",2.842,2.842,2.737,4.053,3.263,3.053,2.947,2.842,3.579,2.947
"12","hotel_100554",3.185,3.222,3.296,3.741,3.519,3.741,3.741,2.889,3.556,3.481
"13","hotel_100560",3.429,3.286,3.857,4.214,3.786,3.857,3.857,3.143,3.786,3.429
"14","hotel_100561",3.812,3.812,3.500,3.812,3.750,3.938,3.750,3.375,3.688,3.750
"15","hotel_100562",4.130,4.030,4.320,4.730,4.350,4.190,4.100,3.950,4.000,4.260
"16","hotel_100564",2.333,3.000,2.333,3.667,2.500,3.000,2.750,2.333,3.250,2.833
"17","hotel_100565",4.537,4.268,4.683,4.659,4.561,4.488,4.463,3.902,4.366,4.585
"18","hotel_100567",3.882,3.735,3.912,4.324,4.206,4.088,4.059,3.471,3.647,3.971
"19","hotel_100569",4.609,4.565,4.522,4.087,4.652,4.826,4.783,4.478,4.043,4.609
"20","hotel_72572",4.034,4.000,4.172,4.379,4.448,4.414,4.310,4.069,4.103,4.207
"21","hotel_72579",3.462,3.538,3.692,3.846,3.923,3.615,3.769,4.000,3.615,3.769
"22","hotel_72586",3.500,3.667,3.611,3.944,4.000,3.667,3.778,3.833,4.000,3.833
"23","hotel_73718",3.167,3.167,3.167,3.000,3.333,3.000,3.000,3.333,3.333,3.000
"24","hotel_73727",4.000,4.400,3.600,4.000,4.000,4.200,4.200,4.200,4.400,4.200
"25","hotel_73739",4.000,4.333,4.333,4.000,4.000,3.667,4.000,4.000,4.000,4.000
"26","hotel_73757",3.714,3.571,4.000,4.714,4.000,3.714,3.857,4.000,3.857,3.857
"27","hotel_73787",2.818,3.091,3.091,3.273,3.636,3.455,3.182,2.909,3.273,3.182
"28","hotel_73799",3.500,3.429,3.429,3.571,3.357,3.714,3.714,3.357,3.571,3.643
"29","hotel_73821",4.400,4.600,4.467,4.000,4.600,4.600,4.333,4.000,4.200,4.733
"30","hotel_73855",3.750,3.875,3.688,4.062,4.312,4.125,4.062,3.375,3.438,3.875
"31","hotel_73923",4.000,4.000,3.875,4.375,4.250,4.500,4.000,3.875,3.500,4.125
"32","hotel_73943",4.841,4.591,4.773,4.773,4.886,4.636,4.909,4.545,3.977,4.818
"33","hotel_73947",3.100,3.300,3.300,3.500,3.600,3.600,3.700,3.600,4.000,3.600
"34","hotel_73950",3.250,3.250,2.500,3.250,3.500,3.500,3.250,3.750,3.500,3.500
"35","hotel_73957",3.980,4.039,4.235,4.118,4.235,4.137,4.059,3.275,3.961,4.216
"36","hotel_73985",1.000,1.000,1.000,1.800,1.400,2.000,1.600,1.200,2.400,1.200
"37","hotel_74051",3.333,3.000,3.000,4.000,3.333,4.167,4.167,2.833,2.833,3.333
"38","hotel_74583",4.455,4.636,4.545,4.273,4.455,4.636,4.364,4.273,3.727,4.636
"39","hotel_74626",4.136,4.182,4.227,4.000,4.273,4.136,4.045,3.682,4.000,4.136
"40","hotel_75662",4.375,4.312,4.250,3.812,4.312,4.125,4.375,4.312,4.062,4.312
"41","hotel_76061",3.862,3.759,3.931,3.759,4.103,4.034,4.034,3.897,4.000,4.034
"42","hotel_76083",4.352,4.093,4.481,4.426,4.648,4.444,4.370,4.130,4.167,4.426
"43","hotel_76442",4.275,4.137,4.608,4.255,4.608,4.510,4.392,3.765,3.961,4.588
"44","hotel_77055",2.571,2.571,2.571,3.429,3.000,3.143,3.143,2.571,2.857,2.714
"45","hotel_77264",3.667,3.718,3.487,4.333,4.000,4.077,3.897,3.359,3.769,3.821
"46","hotel_77270",4.132,4.303,3.829,4.842,4.053,4.329,4.145,3.934,4.197,4.289
"47","hotel_77274",3.903,3.625,3.792,4.444,4.056,3.944,3.861,3.847,3.667,3.792
"48","hotel_77629",4.000,3.800,3.800,4.100,4.000,4.700,4.400,4.000,4.200,4.000
"49","hotel_77638",3.900,3.900,3.733,4.233,4.000,3.933,4.033,3.833,4.000,3.967
"50","hotel_77700",4.080,3.840,4.160,4.080,4.280,4.160,3.960,3.680,3.920,4.240
"51","hotel_77714",4.000,4.000,3.588,4.235,4.059,3.882,4.059,3.647,4.059,4.000
"52","hotel_77775",4.614,4.544,4.667,4.579,4.825,4.667,4.754,4.439,4.193,4.702
"53","hotel_77804",4.583,4.607,4.643,4.107,4.726,4.655,4.583,4.405,4.119,4.702
"54","hotel_77827",4.250,4.250,4.250,4.250,4.438,4.500,4.562,4.250,3.875,4.375
"55","hotel_77866",3.478,3.433,3.224,3.612,3.716,3.806,3.612,3.254,3.582,3.478
"56","hotel_77917",3.850,4.050,3.750,4.050,3.900,4.150,4.000,3.500,3.850,3.850
"57","hotel_77944",4.464,4.362,4.536,4.188,4.681,4.391,4.493,4.000,3.812,4.551
"58","hotel_78046",4.020,4.184,4.245,4.265,4.184,4.143,3.959,3.755,3.918,4.224
"59","hotel_78682",4.000,3.838,3.892,4.000,4.054,4.324,4.027,3.649,3.784,4.108
"60","hotel_78688",3.467,3.600,3.067,4.000,3.667,3.667,3.533,3.200,3.667,3.600
"61","hotel_78694",4.371,4.210,4.403,4.484,4.516,4.274,4.387,3.661,3.839,4.387
"62","hotel_79500",2.875,2.625,3.000,2.750,3.125,3.250,3.125,2.750,3.375,2.750
"63","hotel_80083",4.611,4.741,4.148,4.741,4.630,4.204,4.185,3.778,4.037,4.556
"64","hotel_80087",4.500,4.595,4.405,4.690,4.357,4.333,4.310,3.976,4.119,4.619
"65","hotel_80275",3.531,3.594,3.750,4.625,3.844,3.906,3.625,3.594,3.688,3.812
"66","hotel_80747",4.189,4.208,4.113,4.660,4.453,4.302,4.396,3.623,3.887,4.377
"67","hotel_80756",4.000,4.206,3.824,4.324,4.235,4.176,4.000,3.618,4.059,4.206
"68","hotel_80771",3.100,3.400,3.100,4.400,3.400,3.000,3.100,3.400,3.600,3.400
"69","hotel_80774",3.938,4.250,3.458,4.812,4.271,4.167,4.021,3.438,3.958,4.146
"70","hotel_80780",4.148,4.123,4.074,4.654,4.407,4.198,4.173,3.852,4.086,4.272
"71","hotel_80784",3.083,3.229,3.042,3.604,3.396,3.604,3.542,2.854,3.688,3.250
"72","hotel_80786",3.704,4.000,3.519,4.630,4.148,4.333,4.222,3.593,3.926,4.000
"73","hotel_80788",2.667,3.222,2.667,2.556,3.000,2.667,2.889,2.333,3.111,2.667
"74","hotel_80793",4.068,3.919,4.135,4.459,4.311,4.162,4.149,3.851,3.919,4.284
"75","hotel_80797",4.574,4.377,4.443,4.689,4.639,4.525,4.475,4.328,4.213,4.623
"76","hotel_80799",2.500,2.727,2.545,2.591,3.000,3.227,3.182,2.636,3.091,2.682
"77","hotel_80802",4.254,4.286,4.254,4.127,4.651,4.476,4.492,4.063,4.095,4.476
"78","hotel_80808",3.946,3.973,3.703,4.054,4.054,4.027,3.919,3.432,4.054,4.027
"79","hotel_80836",3.526,3.789,3.211,4.211,3.737,3.789,3.737,2.947,3.789,3.789
"80","hotel_80864",4.294,4.471,4.235,3.412,4.471,4.529,4.412,4.000,4.000,4.412
"81","hotel_80879",3.550,3.750,3.750,3.250,4.200,3.800,3.750,3.500,3.850,3.750
"82","hotel_80912",3.645,3.742,3.935,3.806,4.065,3.839,3.774,3.484,3.806,3.806
"83","hotel_80917",4.282,4.333,4.487,4.462,4.564,4.205,4.282,3.923,4.256,4.410
"84","hotel_80920",3.686,3.886,3.600,4.114,4.086,4.314,4.086,3.429,3.714,3.971
"85","hotel_80925",4.603,4.586,4.328,3.897,4.603,4.828,4.776,4.310,4.310,4.621
"86","hotel_80930",3.743,3.886,3.743,4.257,3.857,3.943,3.800,3.314,3.771,3.857
"87","hotel_80937",3.222,3.556,3.111,4.556,3.667,3.556,3.556,3.333,3.444,3.444
"88","hotel_80983",4.800,4.693,4.880,4.533,4.853,4.813,4.867,4.520,4.213,4.827
"89","hotel_80987",1.833,2.000,2.167,3.833,2.167,2.333,2.333,2.000,2.833,2.000
"90","hotel_80990",4.267,4.356,4.289,4.622,4.556,4.422,4.378,4.200,4.089,4.400
"91","hotel_80999",3.901,3.859,3.958,4.789,4.211,4.183,4.211,3.592,4.000,4.014
"92","hotel_81004",3.111,3.519,2.852,4.556,3.296,3.704,3.630,3.000,3.889,3.444
"93","hotel_81019",4.072,4.014,3.957,4.667,4.246,4.174,4.188,3.681,4.000,4.145
"94","hotel_81022",4.080,3.940,3.880,4.280,4.500,4.080,4.100,4.140,4.260,3.980
"95","hotel_81035",3.286,3.286,3.714,3.000,3.786,3.857,4.071,3.214,3.286,3.571
"96","hotel_81038",3.935,4.000,4.239,4.359,4.435,3.967,4.000,3.989,3.728,4.207
"97","hotel_81042",3.982,3.982,4.107,4.500,4.268,4.018,4.089,4.071,3.929,4.214
"98","hotel_81049",3.809,3.851,3.766,4.064,3.915,3.787,3.766,3.617,3.787,3.830
"99","hotel_81082",4.167,4.167,4.111,4.833,4.167,4.444,4.333,4.111,4.222,4.389
"100","hotel_81087",4.281,4.203,4.500,4.719,4.594,4.516,4.516,3.938,4.203,4.484
"101","hotel_81103",4.133,3.933,4.150,4.567,4.317,4.267,4.233,3.633,3.933,4.117
"102","hotel_81110",4.438,4.062,4.625,5.000,4.688,4.625,4.625,4.000,4.312,4.625
"103","hotel_81114",4.857,4.857,4.429,3.857,4.714,4.714,4.429,4.000,4.857,4.857
"104","hotel_81126",4.712,4.365,4.712,4.712,4.846,4.692,4.788,4.462,4.038,4.731
"105","hotel_81141",4.114,3.829,4.229,4.314,4.343,4.143,4.257,3.914,4.057,4.171
"106","hotel_81165",4.400,4.400,4.200,4.800,4.520,4.560,4.520,4.400,4.160,4.400
"107","hotel_81169",4.260,4.323,3.906,4.698,4.458,4.344,4.260,3.500,4.208,4.312
"108","hotel_81170",3.824,3.824,3.941,4.471,4.118,4.176,4.000,3.529,3.941,4.000
"109","hotel_81177",4.333,4.417,4.117,4.400,4.533,4.517,4.450,3.917,4.283,4.417
"110","hotel_81192",4.162,4.120,4.231,4.615,4.385,3.991,4.128,3.538,4.094,4.197
"111","hotel_81204",4.652,4.457,4.663,4.598,4.761,4.630,4.652,4.359,4.261,4.728
"112","hotel_81209",4.436,4.333,4.026,3.718,4.436,4.692,4.513,3.872,4.154,4.410
"113","hotel_81215",4.280,4.360,4.180,4.640,4.440,4.440,4.400,4.160,4.260,4.500
"114","hotel_81237",3.724,3.552,3.621,4.690,4.172,4.034,4.069,3.517,3.862,3.759
"115","hotel_81241",3.655,3.845,3.500,3.638,3.828,3.948,3.897,3.431,3.672,3.741
"116","hotel_81246",1.167,1.000,1.000,1.500,1.167,1.333,1.000,1.333,2.000,1.000
"117","hotel_81249",4.276,4.414,3.966,4.310,4.621,4.517,4.483,3.759,3.966,4.345
"118","hotel_81251",3.714,3.837,3.490,3.694,3.878,3.857,3.735,3.571,3.816,3.776
"119","hotel_81315",4.157,4.071,4.371,4.643,4.443,4.314,4.271,3.700,4.029,4.329
"120","hotel_81363",3.905,3.929,3.881,4.238,4.238,4.238,4.190,3.952,4.000,4.119
"121","hotel_81367",3.500,3.750,3.250,3.500,3.000,3.000,3.500,2.500,3.750,3.500
"122","hotel_81375",3.750,3.567,3.850,4.433,4.100,3.667,3.817,3.383,3.867,3.883
"123","hotel_81377",3.743,3.811,3.635,4.568,3.986,3.959,3.892,3.676,3.865,3.851
"124","hotel_81394",4.506,4.519,4.506,4.701,4.558,4.662,4.610,4.234,4.234,4.688
"125","hotel_81397",4.518,4.253,4.639,4.711,4.699,4.518,4.494,4.169,4.133,4.602
"126","hotel_81409",4.830,4.679,4.472,4.925,4.736,4.623,4.774,4.415,4.358,4.792
"127","hotel_81416",3.800,3.900,3.900,4.400,4.200,3.800,3.800,3.500,3.700,3.900
"128","hotel_81418",3.793,3.828,3.414,4.621,3.655,4.069,3.966,3.690,3.966,3.828
"129","hotel_81444",4.523,4.341,4.477,4.614,4.636,4.659,4.773,3.955,3.955,4.545
"130","hotel_81450",4.863,4.529,4.824,4.745,4.902,4.843,4.882,4.490,4.294,4.804
"131","hotel_81459",3.893,4.036,3.857,4.571,4.214,3.786,3.750,3.643,4.107,4.107
"132","hotel_81461",3.763,3.608,3.897,4.649,4.124,4.062,3.876,3.402,3.845,3.887
"133","hotel_81466",4.000,4.273,3.545,4.636,4.273,4.455,4.182,3.909,4.455,4.091
"134","hotel_81480",3.556,3.778,3.222,4.000,3.667,3.556,3.444,3.444,3.667,3.667
"135","hotel_81483",2.263,2.368,2.158,2.895,2.368,2.211,2.316,2.474,3.211,2.316
"136","hotel_81503",3.500,3.800,3.400,4.100,3.700,4.300,3.700,3.600,3.600,3.600
"137","hotel_81511",3.800,4.600,3.800,4.400,3.800,4.200,4.400,3.400,4.000,4.400
"138","hotel_81514",4.269,4.077,4.115,4.808,4.423,4.423,4.462,3.885,3.769,4.231
"139","hotel_81520",3.809,3.787,3.511,4.596,4.085,4.085,4.021,3.809,3.872,4.000
"140","hotel_81522",1.543,1.657,1.486,3.171,1.629,2.057,1.771,2.086,2.743,1.571
"141","hotel_81529",3.757,3.838,3.703,4.676,4.054,4.081,4.000,4.027,3.946,3.973
"142","hotel_81531",3.381,3.429,3.143,4.333,3.476,3.905,3.810,3.238,3.857,3.619
"143","hotel_81553",2.353,2.765,2.235,3.059,2.765,2.588,2.353,2.412,3.059,2.647
"144","hotel_81669",4.080,3.680,4.280,4.320,4.400,4.160,4.320,4.000,4.000,4.240
"145","hotel_81765",4.000,4.083,4.083,4.083,4.083,4.000,3.667,3.667,3.667,3.750
"146","hotel_81768",4.111,4.111,3.222,3.889,3.667,4.111,3.889,3.667,3.444,3.778
"147","hotel_81782",3.571,3.500,3.143,3.643,3.357,3.571,3.714,3.429,4.143,3.571
"148","hotel_81803",3.733,3.933,3.767,4.133,4.033,4.367,4.167,3.533,4.233,4.000
"149","hotel_81809",4.234,4.426,3.809,4.660,4.064,4.362,4.128,3.702,4.234,4.404
"150","hotel_81976",3.150,3.600,2.650,4.350,3.450,3.400,3.350,2.350,3.500,3.400
"151","hotel_81985",4.408,4.327,4.245,4.224,4.673,4.592,4.469,4.122,3.980,4.449
"152","hotel_82105",1.875,2.125,2.125,3.500,2.500,2.875,2.500,2.250,2.750,2.250
"153","hotel_82114",3.826,4.000,3.696,3.957,4.174,4.217,3.826,3.087,3.826,4.087
"154","hotel_82116",3.333,3.733,2.867,4.200,3.600,3.600,3.667,3.067,3.733,3.600
"155","hotel_82578",4.000,4.200,4.000,4.400,4.400,4.400,4.200,3.400,4.000,4.200
"156","hotel_84064",4.586,4.465,4.566,4.303,4.636,4.515,4.455,4.141,4.202,4.596
"157","hotel_84440",4.250,4.125,4.312,3.875,4.312,4.250,4.188,3.625,4.312,4.250
"158","hotel_84455",3.692,3.769,3.846,4.077,4.115,3.731,3.923,3.500,3.654,3.885
"159","hotel_84502",4.561,4.447,4.026,4.728,4.439,4.851,4.833,4.167,4.149,4.561
"160","hotel_84522",4.300,4.183,4.450,4.150,4.533,4.483,4.433,4.283,3.967,4.383
"161","hotel_84561",3.786,3.714,3.429,4.429,3.571,4.000,3.857,3.286,3.714,3.714
"162","hotel_84993",4.200,4.200,4.400,5.000,4.600,4.600,4.800,4.000,3.000,4.400
"163","hotel_85003",1.000,1.000,1.000,1.500,1.000,1.400,1.300,1.200,2.400,1.000
"164","hotel_85005",2.250,2.250,2.625,3.125,2.250,2.625,2.625,2.500,2.375,2.375
"165","hotel_85007",2.000,1.857,2.357,2.857,2.286,2.143,2.214,2.143,2.714,1.929
"166","hotel_85027",3.500,3.375,3.594,3.438,3.844,4.062,4.094,3.625,3.531,3.688
"167","hotel_85029",3.800,3.433,3.933,3.933,4.000,3.600,3.767,3.567,3.633,3.667
"168","hotel_85031",3.690,3.586,3.862,3.966,4.103,4.000,3.931,3.414,3.897,3.862
"169","hotel_85046",3.364,3.318,3.636,4.091,3.545,3.455,3.364,3.455,3.500,3.364
"170","hotel_85147",3.721,3.779,3.512,4.198,3.779,3.802,3.686,3.523,3.756,3.744
"171","hotel_85161",2.500,2.500,2.333,3.000,2.500,2.583,2.417,2.500,3.417,2.417
"172","hotel_85189",3.111,2.889,3.000,3.889,3.222,3.333,3.333,2.889,3.333,3.111
"173","hotel_85192",3.808,3.885,3.923,3.731,4.038,3.923,3.962,3.808,3.808,3.923
"174","hotel_85193",3.545,3.500,3.591,3.909,3.773,3.500,3.591,3.455,3.500,3.682
"175","hotel_85204",3.765,3.882,4.353,3.882,4.235,3.941,3.941,4.000,3.412,4.176
"176","hotel_85205",4.190,4.119,4.214,3.905,4.333,4.167,4.167,4.167,3.762,4.190
"177","hotel_86951",4.286,4.179,3.714,4.750,4.321,4.250,4.286,3.286,3.786,4.214
"178","hotel_86957",4.089,4.022,4.156,4.178,4.267,3.978,3.889,3.822,4.022,4.044
"179","hotel_86959",4.112,4.325,3.900,4.162,4.300,4.325,4.237,3.987,3.862,4.325
"180","hotel_86966",4.594,4.623,4.536,4.159,4.739,4.768,4.783,4.609,4.435,4.739
"181","hotel_86969",4.237,4.356,4.333,4.429,4.416,4.502,4.484,4.091,3.991,4.447
"182","hotel_86970",3.500,3.500,3.150,4.000,3.400,3.750,3.600,2.850,3.750,3.500
"183","hotel_86973",3.850,4.000,3.650,4.450,3.850,4.000,4.150,3.500,3.650,4.150
"184","hotel_86978",4.260,4.266,4.085,4.599,4.271,4.209,4.271,3.751,3.966,4.339
"185","hotel_86983",2.833,3.250,2.583,4.833,3.083,3.500,3.500,2.750,3.583,3.250
"186","hotel_86984",4.352,4.407,3.704,4.926,4.407,4.519,4.481,3.556,4.000,4.315
"187","hotel_87008",4.136,4.346,4.296,3.963,4.272,4.222,4.198,3.741,3.926,4.309
"188","hotel_87011",4.408,4.408,4.388,4.429,4.592,4.510,4.571,3.816,4.184,4.551
"189","hotel_87015",2.000,2.200,2.000,3.000,2.000,2.400,2.400,2.200,2.600,2.000
"190","hotel_87016",4.199,3.988,4.251,4.542,4.394,4.127,4.183,3.721,3.761,4.231
"191","hotel_87017",3.700,3.600,3.850,4.200,3.900,3.900,3.600,3.550,3.600,3.800
"192","hotel_87018",3.556,4.000,3.667,3.333,4.000,4.222,4.333,4.222,3.778,3.889
"193","hotel_87024",4.333,4.500,4.000,4.250,4.167,4.500,4.417,3.917,4.167,4.417
"194","hotel_87031",4.530,4.539,4.270,4.600,4.391,4.609,4.626,4.243,4.330,4.574
"195","hotel_87040",3.250,3.500,3.179,4.036,3.464,3.714,3.464,2.857,3.464,3.393
"196","hotel_87044",3.882,4.147,3.706,4.441,4.088,4.118,4.000,3.559,3.765,4.088
"197","hotel_87052",4.508,4.477,4.523,4.785,4.646,4.769,4.615,4.215,4.092,4.662
"198","hotel_87072",3.800,3.900,4.200,4.200,4.000,4.000,3.900,4.100,3.600,3.900
"199","hotel_87076",2.375,2.375,2.375,2.750,2.375,2.750,2.250,2.250,2.750,2.125
"200","hotel_87084",3.250,3.250,3.250,4.000,3.250,2.833,2.917,2.917,3.333,3.167
"201","hotel_87090",3.333,3.458,3.375,4.083,3.458,3.667,3.500,3.167,3.708,3.542
"202","hotel_87091",2.000,2.000,2.167,2.667,2.667,2.667,2.500,2.167,2.667,2.000
"203","hotel_87095",3.059,3.118,2.941,4.118,3.147,3.441,3.382,2.529,3.588,3.265
"204","hotel_87097",4.242,4.394,3.606,4.788,3.970,4.303,4.212,3.303,3.848,4.333
"205","hotel_87099",3.571,3.714,3.857,4.143,4.286,4.429,4.429,3.857,3.286,4.000
"206","hotel_87102",4.479,4.281,4.354,4.865,4.625,4.552,4.458,3.708,3.729,4.469
"207","hotel_87104",3.789,3.873,3.451,4.676,3.746,4.000,3.789,3.352,3.634,3.746
"208","hotel_87108",3.847,3.718,3.894,4.541,4.059,3.953,3.953,3.647,3.224,3.929
"209","hotel_87111",3.789,3.868,3.421,4.579,3.605,3.974,3.895,3.184,3.447,3.816
"210","hotel_87115",4.400,4.600,4.400,4.200,4.400,3.600,4.200,4.600,4.000,4.600
"211","hotel_87119",3.818,4.045,3.500,4.227,4.000,4.136,4.273,4.091,3.636,4.227
"212","hotel_87147",4.129,4.548,3.548,4.548,4.000,4.226,4.032,3.258,3.677,4.161
"213","hotel_87149",3.953,4.163,3.419,4.116,3.977,4.070,4.070,4.233,3.721,4.047
"214","hotel_89033",3.765,3.824,3.471,4.118,3.824,4.118,3.941,2.941,3.706,3.824
"215","hotel_89049",3.893,4.071,3.893,4.607,4.179,4.000,4.000,3.607,3.964,4.107
"216","hotel_89050",3.773,3.955,3.727,4.864,3.727,3.864,3.773,3.227,3.864,3.909
"217","hotel_89053",2.200,2.500,2.200,3.600,2.400,2.500,2.400,2.100,3.000,2.500
"218","hotel_89054",4.056,4.278,4.167,4.500,4.056,3.778,4.111,3.000,3.778,4.056
"219","hotel_89064",1.667,1.833,2.000,2.667,2.000,1.500,1.500,1.833,2.333,1.833
"220","hotel_89083",4.219,4.312,4.156,4.375,4.375,4.438,4.219,4.000,3.906,4.375
"221","hotel_89091",4.515,4.456,4.309,4.206,4.471,4.515,4.721,4.353,4.044,4.515
"222","hotel_89096",4.114,4.171,4.200,4.543,4.114,4.229,4.114,4.029,4.029,4.314
"223","hotel_89101",3.769,3.667,3.718,4.410,4.128,4.103,4.077,3.231,3.692,3.846
"224","hotel_89115",4.378,4.178,4.111,4.822,4.422,4.289,4.378,3.956,3.911,4.356
"225","hotel_89118",4.393,4.464,3.964,4.536,4.393,4.393,4.357,3.679,3.929,4.357
"226","hotel_89119",3.500,4.000,3.750,3.500,3.500,4.000,3.750,3.000,4.000,4.000
"227","hotel_89130",4.000,3.917,4.333,4.833,4.333,4.333,4.167,3.750,3.583,4.333
"228","hotel_89143",2.500,2.562,2.500,4.062,2.625,2.250,2.562,2.188,3.188,2.500
"229","hotel_89147",4.077,4.462,4.154,4.615,4.000,4.077,4.231,3.769,4.308,4.385
"230","hotel_89148",4.508,4.397,4.444,4.810,4.730,4.175,4.365,3.794,4.095,4.476
"231","hotel_89150",3.750,4.000,4.250,4.750,4.000,4.000,4.250,4.500,4.250,4.500
"232","hotel_89152",3.333,3.444,3.444,4.000,3.222,3.444,3.778,2.889,3.667,3.444
"233","hotel_89155",3.150,3.600,3.100,3.900,3.250,2.800,3.100,3.100,3.200,3.300
"234","hotel_89157",4.235,4.235,4.235,4.824,4.176,4.412,4.471,4.000,3.765,4.353
"235","hotel_89158",4.545,4.606,4.515,4.455,4.576,4.576,4.636,4.455,4.242,4.636
"236","hotel_89568",3.200,3.200,2.900,3.900,3.700,3.400,3.300,3.200,3.900,3.000
"237","hotel_89575",4.848,4.515,4.848,4.879,4.909,4.818,4.818,4.455,4.061,4.788
"238","hotel_89585",4.321,3.929,4.143,4.643,4.464,4.286,4.393,3.964,3.929,4.321
"239","hotel_89592",1.909,1.909,1.818,3.273,2.000,2.182,1.909,1.727,2.909,1.909
"240","hotel_89600",4.414,4.157,4.457,4.629,4.600,4.271,4.286,4.057,4.143,4.429
"241","hotel_89602",3.753,3.649,3.711,4.536,3.979,4.113,3.907,3.835,3.856,3.845
"242","hotel_89619",3.348,3.348,3.391,4.130,3.913,4.174,3.870,3.609,3.739,3.435
"243","hotel_89620",3.750,4.000,4.200,4.300,4.300,4.200,3.900,3.300,3.600,4.100
"244","hotel_90015",4.685,4.250,4.457,4.804,4.804,4.696,4.750,4.478,3.663,4.598
"245","hotel_90017",3.688,3.625,3.688,3.625,3.938,4.188,4.188,3.375,3.750,3.875
"246","hotel_90108",4.000,4.077,4.077,4.231,4.308,4.308,4.385,3.692,3.923,4.077
"247","hotel_90159",3.947,4.132,3.711,4.421,3.789,4.105,3.974,3.316,3.632,4.105
"248","hotel_93025",3.471,3.588,3.588,4.529,3.647,3.353,3.412,3.412,3.706,3.412
"249","hotel_93034",4.262,4.143,4.262,4.762,4.500,4.214,4.476,4.071,4.048,4.357
"250","hotel_93047",4.517,4.603,4.362,4.862,4.569,4.621,4.534,4.328,4.207,4.655
"251","hotel_93051",4.381,4.476,4.159,4.794,4.381,4.381,4.460,3.841,4.333,4.508
"252","hotel_93116",5.000,5.000,5.000,5.000,5.000,5.000,5.000,4.500,4.167,5.000
"253","hotel_93146",4.350,4.450,4.150,4.250,4.100,4.450,4.250,4.150,3.950,4.400
"254","hotel_93147",2.353,2.412,2.471,3.765,2.647,2.647,2.353,2.588,3.059,2.471
"255","hotel_93164",3.776,3.571,3.959,4.429,4.163,3.918,3.939,3.469,3.776,3.878
"256","hotel_93230",1.000,1.000,1.000,1.000,1.000,1.000,1.000,1.000,2.000,1.000
"257","hotel_93242",1.167,2.000,1.833,2.500,1.833,2.500,1.667,1.333,2.500,1.833
"258","hotel_93247",3.061,3.242,3.061,3.909,3.212,3.242,3.273,3.000,3.303,3.152
"259","hotel_93335",4.447,4.447,4.316,4.816,4.500,4.447,4.605,4.053,4.289,4.579
"260","hotel_93338",4.329,4.367,4.241,4.544,4.367,4.152,4.139,3.722,4.278,4.367
"261","hotel_93340",4.737,4.465,4.605,4.825,4.816,4.658,4.702,4.447,4.325,4.728
"262","hotel_93435",4.250,4.380,4.033,4.152,4.196,4.326,4.250,3.554,4.011,4.380
"263","hotel_93457",4.531,4.434,4.448,4.717,4.531,4.579,4.490,4.186,4.110,4.572
"264","hotel_93459",3.900,3.800,4.100,4.500,4.000,4.500,4.300,4.400,4.400,4.200
"265","hotel_93460",4.312,4.312,4.500,3.938,4.562,4.688,4.562,3.875,3.938,4.438
"266","hotel_93467",4.723,4.638,4.638,4.489,4.702,4.660,4.766,4.064,4.489,4.745
"267","hotel_93477",4.231,4.179,4.385,4.026,4.436,4.385,4.256,3.949,3.872,4.282
"268","hotel_93507",4.450,4.181,4.474,4.883,4.491,4.404,4.398,3.994,3.994,4.497
"269","hotel_93534",4.357,4.143,4.486,4.843,4.643,4.329,4.486,4.071,4.171,4.500
"270","hotel_93569",4.219,4.148,4.077,4.668,4.378,4.281,4.270,3.648,3.898,4.291
"271","hotel_93589",4.606,4.366,4.634,4.873,4.704,4.465,4.535,3.775,4.268,4.592
"272","hotel_93593",4.155,4.000,4.084,4.581,4.226,4.129,4.032,3.684,4.058,4.129
"273","hotel_94326",4.308,4.115,4.519,4.615,4.712,4.327,4.500,3.827,4.269,4.519
"274","hotel_94330",4.341,4.023,4.295,4.091,4.682,4.500,4.477,4.455,4.045,4.295
"275","hotel_94344",4.583,4.208,4.458,4.875,4.667,4.708,4.458,3.958,3.875,4.417
"276","hotel_94349",3.143,3.143,3.000,4.143,3.429,3.571,3.143,2.714,3.429,3.286
"277","hotel_94350",3.321,3.571,3.250,4.107,3.679,3.607,3.679,2.714,3.929,3.500
"278","hotel_94399",3.974,4.132,4.026,4.500,4.132,3.868,3.684,3.974,3.947,4.132
"279","hotel_98606",4.038,4.154,4.192,4.385,4.423,4.346,4.385,3.923,4.154,4.192
"280","hotel_98629",4.571,4.000,4.857,4.857,4.857,5.000,4.571,4.000,4.286,4.714
"281","hotel_98639",3.846,3.846,4.077,4.231,4.077,4.308,4.308,3.538,3.923,4.077
"282","hotel_98640",4.222,4.000,4.222,4.111,4.778,4.333,4.444,3.667,4.111,4.333
"283","hotel_98641",4.158,4.053,4.105,4.316,4.421,4.105,4.158,3.842,4.053,4.263
"284","hotel_98644",2.000,2.000,2.500,1.500,2.500,2.500,2.500,2.000,3.000,2.500
"285","hotel_98675",4.000,4.000,3.800,4.000,4.000,4.200,4.000,4.000,4.000,4.000
"286","hotel_98679",3.946,3.892,4.081,4.027,4.189,4.243,4.216,3.703,3.676,4.054
"287","hotel_98694",2.800,3.000,3.100,3.800,3.300,2.600,3.000,3.500,3.200,3.100
"288","hotel_98702",2.000,2.000,2.000,2.400,2.000,2.000,2.000,1.800,2.600,2.000
"289","hotel_98710",4.278,4.278,4.444,4.056,4.667,4.667,4.778,3.944,4.333,4.500
"290","hotel_98717",3.455,3.636,3.727,3.455,3.818,3.727,3.818,3.636,4.273,3.727
"291","hotel_98719",3.562,3.562,3.625,3.812,3.812,3.812,3.938,3.125,3.625,3.562
"292","hotel_98726",4.889,4.611,4.722,4.556,4.944,5.000,5.000,4.667,4.167,4.944
"293","hotel_98727",4.250,4.250,4.000,4.500,4.250,4.500,4.750,3.500,3.750,4.250
"294","hotel_98728",4.000,3.833,4.250,4.167,4.250,4.000,4.000,3.917,4.167,4.083
"295","hotel_98731",3.886,3.657,3.943,3.429,4.171,3.914,3.943,3.571,3.543,3.743
"296","hotel_99368",4.517,4.427,4.427,4.775,4.652,4.573,4.551,4.270,4.202,4.584
"297","hotel_99371",4.571,4.353,4.617,4.647,4.729,4.489,4.579,4.308,4.180,4.624
"298","hotel_99392",4.166,4.121,3.898,4.631,4.325,4.045,4.057,4.019,4.076,4.223
"299","hotel_99466",4.372,4.163,4.535,4.349,4.512,4.395,4.372,3.814,4.163,4.349
"300","hotel_99762",4.675,4.350,4.658,4.533,4.858,4.475,4.575,4.308,4.325,4.667
