abandon
abate
abominable
abomination
abrasive
abrupt
abruptly
abschrecken
absence
absent
absentee
absolutamente
absurd
absurdity
absurdly
abuse
abused
abusive
abysmal
abysmally
abyss
acces
accident
accidental
accidents
accost
accusations
accuse
accusing
ache
ached
aches
aching
acrid
adamant
adamantly
addict
addicted
addicting
addicts
adjacent
admonish
adverse
afraid
aggravate
aggravating
aggravation
aggressive
aggrivation
aghast
agitation
agonize
agonizing
agonizingly
agony
ailing
ailment
aire
alarm
alarmed
alarming
alas
alergic
ali
alienated
alienation
allas
allegations
allergic
allergies
allergy
aloof
alto
ambivalent
amiss
anemic
anger
angrily
angry
angst
anguish
animosity
annoy
annoyance
annoyances
annoyed
annoying
annoyingly
annoys
ano
anochecer
anomaly
antagonize
anticuado
antiquated
anxieties
anxiety
anxious
anxiously
apart
apathetic
apathy
appalled
appalling
appallingly
apprehension
apprehensions
apprehensive
aptitude
aquarium
arbitrary
archaic
arduous
argument
argumentative
arid
arm
arogant
aroma
arrogance
arrogant
arrogantly
ars
artificial
asam
asap
asco
ashamed
asinine
assault
assertion
assolutamente
ast
astray
atone
atrocious
atrocity
attack
attacks
attention
attenzione
audaciousness
audacity
austere
austero
avarice
averse
aversion
aweful
awful
awfully
awfulness
awkward
awkwardness
ax
backache
backaches
backbiting
backward
backwoods
bad
badly
baffle
baffled
baffling
bait
baja
balk
band
bandit
bang
bankrupt
bar
barbara
barren
barricade
bas
bash
bashed
bashful
bashing
bastard
battered
bau
bayan
beat
bedlam
beg
beggar
begging
beholder
bel
belated
belie
beligerant
belittled
belittling
belligerent
bemused
bent
berate
bereft
besonders
beware
bewildered
bewildering
bewilderment
bias
biased
bickering
biting
bits
bitten
bitter
bitterly
bitterness
bizarre
blah
blame
bland
blasted
blatant
blatantly
bleak
bleed
bleeding
bleeds
blemish
bleu
blind
blinding
blindingly
blink
blister
blistering
bloated
blockage
bloody
blow
bluff
blunder
blunt
blurry
bo
boastful
bobo
bogus
boil
boiling
boisterous
bok
bom
bomb
bonkers
bore
bored
boredom
bores
boring
boss
bosses
bot
botch
bother
bothered
bothering
bothers
bothersome
bout
box
boycott
brag
brash
brat
bravo
brazen
breach
break
breakdown
breaking
breaks
bribery
bristle
broke
broken
bros
bruise
bruised
bruises
bruit
bruits
brusque
brut
brutal
brutally
brutto
bruyant
bruyante
bs
buckle
bug
bugging
buggy
bugs
bulk
bulkier
bulky
bull
bullying
bum
bump
bumped
bumping
bumps
bumpy
bunk
burden
burn
burned
burning
burns
bus
bust
buster
buzzing
calamity
calibre
camper
canal
cancer
cane
caos
caotico
capricious
car
caracter
caramel
careless
carelessness
caro
carp
cascade
casino
caso
casual
casualty
catastrophe
cauchemar
cautionary
cave
chagrin
challenging
chaos
chaotic
charge
charger
chatter
cheap
cheapen
cheaply
cheat
cheated
cheating
cheesy
cher
childish
chill
chilly
chin
chintzy
choc
chock
choke
choppy
chore
chronic
chunky
chute
chutes
cin
citroen
cliche
clog
clogged
clogs
cloud
cloudy
clueless
clumsy
clunky
coarse
coche
cochon
cocky
coerce
coin
cold
coldly
colibri
collapse
color
colossal
combat
combative
comer
comic
comical
commiserate
commonplace
commotion
complacent
complain
complained
complaining
complains
complaint
complaints
complex
complicate
complicated
compromis
comune
concede
conceded
concens
concern
concerned
concerns
concession
concessions
condemn
condemnation
condemned
condescending
condescendingly
condescension
confess
confined
conflict
conflicting
conflicts
confounded
confront
confrontation
confrontational
confuse
confused
confusing
confusion
congested
congestion
cons
conscons
conservative
conspiracy
conspire
contagious
contaminated
contamination
contempt
contemptuous
contend
contender
contention
contentious
contort
contradiction
contradictory
contrived
controversy
corrosion
corrupt
corrupted
costly
coup
coward
crabby
crack
cracked
cracks
crafty
cramp
cramped
cranky
crap
crappy
crash
crashed
crashes
crashing
crass
craze
craziness
crazy
creak
creaking
creaks
creep
creeping
creeps
creepy
crepe
crept
crime
crimes
criminal
cringe
cringed
crippled
crippling
crise
crisis
critic
critical
criticism
criticisms
criticize
criticized
criticizing
critics
critique
critiques
crook
crooked
crooks
crowded
crowdedness
crud
crude
crudo
cruel
crumble
crumbling
crummy
crumple
crumpled
crush
crushed
crushing
cry
culprit
cumbersome
curse
cursed
curt
cynical
damage
damaged
damages
damaging
damm
damn
damned
damp
dampen
damper
danger
dangerous
danno
dano
dark
darken
darkened
darker
darkness
daunting
daze
dazed
dead
deadly
deaf
death
debacle
debatable
debate
debauchery
debt
decade
decadence
decadent
decay
deceitful
deceive
deceiving
deception
deceptive
deceptively
decline
declining
decrepit
decrepitude
defect
defective
defects
defensive
defiance
defiantly
deficiencies
deficiency
deficient
deformed
defunct
defy
degrade
degrading
deign
dejected
delay
delayed
delaying
delays
deli
delirious
deluge
delusional
delusione
delusions
demeaning
demise
denial
denied
denies
denigrate
dense
dent
dented
dents
deny
denying
dependent
deplorable
depress
depressed
depressing
depressingly
depression
deprive
deprived
derisive
derogatory
desagradable
descuidado
desert
desolate
despair
desperate
desperately
desperation
despicable
despise
despota
destitute
destitution
destroy
destruction
deter
deteriorate
deteriorating
deterioration
deterrent
detest
detested
detract
detracted
detracting
detraction
detracts
detriment
detrimental
devastated
devastating
devastation
deviate
devil
devoid
diablo
diabolical
diagram
diameter
diappointed
dick
died
difficult
difficulties
difficulty
dilapidated
dilema
dilemma
dim
dimmer
ding
dings
dinky
dire
direkt
dirt
dirts
dirty
disable
disabled
disadvantage
disadvantaged
disadvantages
disagree
disagreeable
disagreed
disagreement
disapointed
disapointing
disapointment
disappoint
disappointed
disappointing
disappointingly
disappointment
disappointments
disappoints
disarray
disaster
disasterous
disastro
disastrous
disbelief
disclaim
discomfort
disconcerting
disconcertingly
discontent
discontinue
discontinued
discourage
discouraging
discourteous
discourteously
discredit
discriminate
discrimination
discriminatory
disdain
disdainful
disdainfully
disgrace
disgraceful
disgracefully
disgruntled
disgust
disgusted
disgusting
disgustingly
disheartening
dishonest
dishonesty
dishonor
dishonorable
disillusioned
disinterest
disinterested
dislike
disliked
dislikes
dismal
dismay
dismayed
dismissive
dismissively
disorder
disorderly
disorganized
disoriented
disparage
disparaging
dispirited
displaced
displeased
displeasure
disproportionate
disprove
dispute
disputed
disregard
disreputable
disrespect
disrespectful
disrespectfully
disrupt
disruption
disruptive
diss
dissapointed
dissappointed
dissappointing
dissatisfaction
dissatisfied
dissatisfying
dissed
disservice
dissing
dissuade
distant
distaste
distasteful
distorted
distract
distracting
distraction
distress
distressed
distressing
disturb
disturbance
disturbed
disturbing
disturbingly
divergent
divers
diverse
division
dizzy
dodgey
dogged
dol
dolores
dommage
doom
doomed
dope
dor
doubt
doubtful
doubts
doute
downbeat
downer
downfall
downgrade
downhill
downside
downsides
downturn
drab
draconian
drag
dragged
dragging
dragon
drags
drain
drained
drainer
draining
drains
drastic
drastically
drawback
drawbacks
dread
dreadful
dreadfully
dreary
dripped
dripping
drippy
drips
drone
drones
drowning
drugs
drunk
drunken
dubious
dud
duel
dull
dullard
dumb
dump
dumped
dumper
dumping
dumps
dunce
dungeon
dunkel
duper
dure
dust
dusty
dying
earsplitting
eccentric
edan
egregious
egregiously
elimination
embarrassing
embarrassingly
embarrassment
emergency
emphatically
endurance
enemies
enemy
eng
ennui
enraged
envious
enviously
epidemic
erase
erosion
err
errant
erratic
erratically
erroneous
erroneously
error
errori
errors
erstklassig
escapade
escape
eschew
escrocs
espejismo
essen
evasion
evasive
evil
evils
evita
evitare
exacerbate
exagerated
exaggerate
exaggeration
exasperated
exasperation
excessive
excessively
excruciating
excruciatingly
excuse
excuses
exhaust
exhausted
exhaustion
exhausts
exhorbitant
exorbitant
exorbitantly
expensive
experimental
expired
explode
exploit
explosions
extender
exterior
exterminate
extermination
extortion
extraneous
extravagance
extravagant
extravagantly
eyesore
fabrication
fade
fail
failed
failing
fails
failure
failures
faint
fainthearted
faire
fake
fall
fallacies
fallen
falling
falls
false
falsely
falt
famine
famished
fanatic
fanatical
fanatics
fanciful
fango
farce
fare
fastidious
fat
fatal
fatally
fateful
fatigue
fatigued
fatty
fault
faults
faulty
faux
faze
fear
fearful
fears
feeble
feign
feint
fell
fever
fiasco
fickle
fiction
fiend
fierce
filth
filthy
finicky
fire
fist
fix
flabbergasted
flagging
flair
flake
flakey
flaking
flaky
flare
flaw
flawed
flaws
flee
fleeing
fleeting
flicker
flickering
flimsy
flirt
floored
flop
flout
fly
foe
fool
fooled
foolish
foolishly
forbid
forbidden
forbidding
forby
forceful
forfeit
forged
forgetful
forgetfulness
fori
formal
forsake
foul
fragile
fragmented
frail
frantic
frantically
fraud
fraudulent
fraught
frazzled
freak
freaking
freakish
freakishly
freaks
freeze
freezes
freezing
frenetic
frenetica
frenzied
frenzy
fret
fretful
fried
frig
fright
frighten
frightening
frighteningly
frightful
frightfully
frigid
froid
frost
frown
froze
frozen
fruitless
frustrated
frustrating
frustratingly
frustration
frustrations
fudge
fuir
ful
full
fumble
fumes
funky
funny
furchtbar
furious
furiously
furor
fury
fuss
fussy
fusty
futile
futility
fuzzy
gadget
gal
gall
galling
galls
gangster
gape
garbage
garish
gasp
gauche
gaudy
gawk
gay
geezer
gehen
gel
gelato
geri
getand
getto
ghastly
ghetto
gibberish
giddy
gift
gimmick
gimmicks
glacial
glare
glaringly
glitch
glitches
gloom
gloomy
glum
goof
goofy
goreng
gossip
grade
grainy
gras
grate
grating
grausam
grave
gravely
gravier
greasy
greed
greedy
grief
grievance
grievances
grille
grim
grind
grip
gripe
gripes
grisly
gritty
gros
gross
grosse
grossly
grotesque
grouch
grouchy
groundless
grove
grudge
grudging
grudgingly
gruff
grumble
grumpiest
grumpily
grumpy
grunt
guilt
guilty
gutter
habis
habitat
hack
hacks
haggle
halfhearted
halfheartedly
halla
halten
hamper
hampered
handicap
handicapped
handling
hang
hangs
haphazard
hapless
harangue
harass
harassed
harassment
hard
harden
hardened
hardship
harm
harmed
harmful
harms
harried
harsh
harshly
hash
hassle
hassled
hassles
hastily
hasty
hate
hated
hateful
hates
hating
haughtily
haughty
haunt
haunting
haus
havoc
hazard
hazardous
haze
hazy
headache
headaches
heck
heckled
hectic
hefty
heinous
hel
hell
hells
helpless
helplessly
hemming
heresy
hesitant
hideous
hideously
hina
hinder
hindrance
hing
hiss
hissing
hobble
hogs
hol
hollow
hoodwink
hopeless
hopelessly
hor
horrendous
horrendously
horrible
horrid
horrific
horrified
horrifying
hostage
hostile
hostility
hot
hotet
hothouse
huir
hum
humid
humiliating
humming
hung
hurt
hurting
hurts
hype
hysteria
hysterical
hysterically
idiot
idioti
idiotic
idiots
idle
ignorance
ignorant
ignore
illegal
illegally
illness
illusion
imaginary
imbalance
immature
imminent
imminently
immobile
immoral
impaired
impatient
impatiently
impede
impediment
impending
impenetrable
imperfect
imperfection
imperfections
imperious
impersonal
impertinent
implication
impolite
impolitely
impose
imposible
imposing
imposition
impossible
impossibly
impoverished
impractical
improper
improperly
impulsive
inability
inacceptable
inaccessible
inaccuracy
inaccurate
inaccurately
inactive
inadequate
inadequately
inane
inappropriate
inappropriately
inattentive
inaudible
incapable
incense
incessant
incessantly
incident
inclement
incomparable
incompatible
incompetence
incompetent
incomplete
inconceivable
inconfortable
incongruous
inconsequential
inconsiderate
inconsistencies
inconsistency
inconsistent
incontournable
inconvenience
inconvenient
inconveniently
incorrect
incorrectly
incredulous
indecent
indifference
indifferent
indigents
indignant
indigne
indiscriminate
indulge
ineffective
ineffectively
ineffectual
inefficiency
inefficient
inefficiently
inept
ineptitude
inescapable
inevitable
inevitably
inexcusable
inexcusably
inexperience
inexperienced
inexplicable
infamia
infamous
infected
infection
infections
inferior
inferiore
infernale
infested
infirm
inflated
inflexible
inflict
infos
infuriated
infuriating
infuriatingly
inhospitable
injure
injury
injustice
inoperable
inordinate
inordinately
insane
insanely
insanity
insect
insecure
insecurity
insensitive
insensitively
insensitivity
insidious
insidiously
insignificant
insincere
insinuation
insolence
insolent
insolitamente
insufferable
insufficient
insufficiently
insuffisant
insult
insulted
insulting
insultingly
insults
insurmountable
intefere
intense
intensive
interfere
interference
interferes
intermittent
interrupt
interruption
interruptions
interval
intimidate
intimidating
intimidation
intolerable
intrude
intrusion
intrusive
inundated
invalid
invasive
invisible
ir
ira
irate
irk
irked
irks
irksome
ironic
ironically
irregular
irrelevant
irresponsible
irresponsibly
irritable
irritably
irritant
irritate
irritated
irritating
irritation
irritations
isolated
isolation
issue
issues
isu
itch
itching
itchy
ivre
iz
jaded
jagged
jalousie
jam
jarring
jaundiced
jealous
jeopardy
jerk
jerky
jitters
jittery
joke
joker
jolt
junk
junky
junkyard
kama
kapa
kaput
kaum
key
kill
killed
killer
killing
kills
kind
kitsch
klein
knapp
knife
knock
koge
kooky
kor
kris
lack
lackadaisical
lacked
lacking
lackluster
lacks
ladrones
lag
lagged
lagging
laid
lam
lame
lament
lande
lang
laps
lapse
lapses
largo
last
lat
late
latency
laughable
laughably
laut
layla
lazy
leak
leakage
leaking
leaks
leaky
leed
leery
leider
lemon
lengthy
lent
lethal
lewd
liability
liable
liaison
liar
liars
lie
lied
liegt
lies
lifeless
lil
limit
limitation
limitations
limite
limited
limites
limits
limo
limon
limp
links
listless
lite
liti
livid
loathe
locker
loco
log
logo
lol
lone
lonely
lonesome
long
longing
longingly
longue
lontano
loos
loose
lose
loser
losers
loses
losing
loss
losses
lost
lotta
loud
louder
lousy
lowly
ludicrous
ludicrously
lukewarm
lull
lumpy
lunatic
lung
lupa
lure
lurk
lurking
lying
mac
mad
madden
maddening
madder
madness
mafioso
maili
mal
mala
malaise
male
males
malicious
malodorous
maltreatment
mani
mania
maniac
manic
manifestations
manipulate
manipulative
manque
mar
marginal
marginally
maria
marmelade
mashed
massacre
mat
mate
matt
mauvais
mauvaise
meager
meaningless
meanness
measly
mediocre
mediocrity
medo
mega
melodramatically
meltdown
menacing
menial
menteurs
mercilessly
mess
messed
messes
messing
messy
meter
micro
midget
miedo
mild
milieu
militant
mindless
miner
mini
minuscule
mirage
misbehavior
miscalculate
miscellaneous
misconception
misconceptions
miser
miserable
miserably
miserly
misery
misfit
misfortune
misgivings
misguided
mishandling
mishap
misinformed
mislead
misleading
misleadingly
misread
misrepresent
misrepresentation
miss
missa
missed
misses
mist
mistake
mistaken
mistakenly
mistakes
mister
mists
misunderstand
misunderstanding
misunderstandings
misunderstood
misuse
moan
mock
mocked
mocking
moco
moe
monotonous
monotony
monster
monstrosity
monstrous
monstrously
moody
mop
morbid
moron
moronic
morons
mortal
mortified
mote
motionless
motley
mourn
mournful
mouse
mousse
muddle
muddy
mundane
murder
murderer
murky
mus
mushy
musty
mysterious
mysteriously
mystery
myth
nag
nagging
naive
naively
nana
nano
narrower
nastiness
nasty
natura
naughty
nauseating
needless
needlessly
needy
negate
negativ
negativa
negative
negatives
negativi
negativity
neglect
neglected
negligence
negligent
negligente
nervous
nervously
neurotic
nie
niggle
niggles
nightmare
nightmarish
nitpick
nitpicking
noia
noir
noise
noises
noisier
noisy
nona
nonexistent
nonresponsive
nonsense
nosey
nostalgia
notorious
notoriously
nov
noxious
nui
nuisance
nul
numb
nyers
obese
object
objection
objectionable
objections
oblivious
obnoxious
obnoxiously
obscene
obscenely
obscenity
obscure
obscured
obsessive
obsessively
obsolete
obstacle
obstinate
obstruct
obstructed
obstructing
obstruction
obtrusive
obtuse
occluded
odd
odder
oddest
oddities
oddity
oddly
odor
odori
offence
offend
offender
offending
offense
offenses
offensive
offensively
offer
officious
ominous
ond
onde
oneven
onslaught
opaque
opening
opinionated
oppose
oppressive
oppressively
orb
ordeal
ordinaire
original
oro
osu
ot
oublier
outburst
outlaw
outrage
outraged
outrageous
outrageously
outsider
overbearing
overblown
overdo
overdone
overdrive
overdue
overemphasize
overkill
overloaded
overlook
overpaid
overpriced
overrated
overrun
overshadow
oversight
oversights
oversize
overstate
overstated
overstatement
overtaxed
overthrow
overweight
overwhelm
overwhelmed
overwhelming
overwhelmingly
overwhelms
overzealous
overzelous
paf
pain
painful
painfully
pains
pal
pala
pale
pales
palo
paloma
paltry
pan
panache
pandemonium
pander
panders
panic
panick
panicked
panicking
panicky
panne
parada
paradox
paralyzed
paranoia
paranoid
parasite
parcial
parrilla
part
particolare
particular
paso
pass
passage
passif
passive
pat
pathetic
pathetically
patronize
paucity
pauper
paura
pause
payback
peculiar
peculiarly
pedantic
peeled
peeve
peeved
pena
penalty
penis
peor
perdere
perdido
perfunctory
peril
perplexed
perplexing
persistent
pertinent
perturbed
pervasive
perverted
pest
pete
petit
petitesse
petrified
petty
peu
phobic
phony
piano
piccolo
pichet
picket
picketing
picky
pico
pieno
pig
pigeon
pigs
pinch
pine
pinto
pip
pipe
piso
pitiful
pittance
pity
plage
plague
plano
planter
plat
plea
pleas
plebeian
plight
plot
plotters
ploy
plump
pointless
pointlessly
poison
poisonous
pokey
poky
pollution
pompous
poor
poorer
poorest
poorly
port
ports
pose
post
posterior
posturing
poverty
powerless
prada
precarious
precariously
predatory
predicament
preface
prejudice
prejudicial
presse
presumptuous
pretend
pretense
pretentious
pricey
pricier
primitive
prison
prisoner
problem
problema
problemas
problematic
probleme
problemi
problems
procrastination
profane
profanity
prohibit
prohibitive
prohibitively
prolijo
propaganda
protest
protested
protesting
protests
protracted
provisional
provocative
provoke
pry
puerto
pul
punch
puny
puta
puzzled
puzzlement
puzzling
qualm
qualms
quartier
quash
quasi
quedas
queer
question
questionable
questions
queue
quibble
quibbles
rabid
race
racha
racine
racism
racist
radical
rage
ragged
raging
rail
raj
raked
ramp
rampant
ramshackle
randomly
ranger
rant
ranted
rap
raping
rare
ras
rascal
rash
rater
rattle
rattled
rattles
raving
ray
razzi
rebel
recession
reckless
red
redundant
refus
refusal
refuse
refused
refuses
refusing
refuted
refutes
regret
regretful
regretfully
regrets
regrettable
regrettably
regretted
reisende
reject
rejected
rejecting
rejects
rel
relentless
relentlessly
reluctance
reluctant
reluctantly
rem
remorse
remover
repel
repetitive
reprehensible
reprimand
reproach
reproche
repugnant
repugnante
repulse
repulsed
repulsive
resent
resentful
reserva
resigned
resistance
rest
reste
restless
resto
restos
restrict
restricted
restriction
restrictive
resurgent
retard
retenir
reticent
retourner
retract
retreat
retreated
rev
revenge
revert
revoke
revolting
revulsion
ride
rides
ridicules
ridiculous
ridiculously
rien
rife
rigid
rigidity
riled
rim
rip
ripoff
ripped
risk
risks
risky
risque
rival
rivalry
rive
rob
rocky
rod
rogue
roh
roken
rollercoaster
rom
roof
rook
ropa
rot
roto
rotten
rough
rouler
rubbish
rude
rue
ruffle
ruin
ruined
ruining
ruinous
ruins
rumbling
rumor
rumoroso
rumors
rumours
runaway
rupture
rust
rusts
rusty
rut
ruthless
sabotage
sac
sack
sacrificed
sad
sadly
sadness
sag
sagged
sagging
saggy
sags
sarcasm
sarcastic
sarcastically
satan
satire
sav
scam
scams
scandal
scant
scarce
scarcely
scarcity
scare
scared
scarier
scariest
scarred
scars
scarso
scary
scathing
sceptical
schade
schande
schlecht
schlechter
schlechteste
schmutzig
schwarz
scold
scolded
scolding
scorching
scornful
scowl
scramble
scrambled
scrambling
scrap
scratch
scratched
scratches
scratchy
scream
screech
screwed
scuff
scuffs
scum
scummy
sec
sed
seedy
seethe
seething
sel
selfish
selfishly
senile
sensationalize
senseless
seriousness
servile
setback
setbacks
sever
severe
severity
shabby
shady
shake
shaky
shallow
sham
shambles
shame
shameful
shamefully
shameless
shark
sharply
shatter
shimmy
shock
shocked
shocking
shockingly
shoddy
shortage
shortcoming
shortcomings
shortsighted
showdown
shriek
shrill
shrouded
shrug
shun
shunned
sick
sickening
sickeningly
sickly
sickness
signes
silly
simplistic
simular
sinful
sinfully
sinister
sink
sinking
sis
sitio
situation
skeletons
skeptic
skeptical
skepticism
skeptisch
sketchy
skimpy
skinny
skit
skulk
sky
slab
slack
slag
slanderous
slap
slaughter
slave
sleazy
sleept
slider
slim
slime
slit
slog
slogged
sloooow
slooow
sloppily
sloppy
slothful
slow
slowed
slower
slowest
slowly
slowwww
sluggish
slur
sly
smack
smal
smallish
smash
smear
smell
smelled
smelling
smells
smelly
smelt
smoke
smudge
smudged
smudges
smug
smugly
smut
snag
snagged
snagging
snags
snarky
snarl
sneak
sneakily
sneaky
sneering
snob
snobbish
snobby
snobish
snobs
soapy
sober
soif
sole
solitaire
solitude
solo
somber
sombre
sore
sorely
sorry
sot
souci
soucis
soufflet
sour
spade
spendy
spew
spewed
spewing
spews
spill
spilling
spite
splatter
splinter
split
splitting
spoil
spoilage
spoiled
spoils
spoken
spook
spookily
spooky
sporadic
spot
spotty
spy
squabbling
squash
squeak
squeaks
squeaky
squeal
squealing
squirm
stab
stagnant
staid
stain
stains
stak
staking
stakk
stale
stall
stalls
stampede
stand
standstill
stank
star
stare
stark
starkly
starter
startling
startlingly
starve
static
statue
steal
stealing
steep
steeply
stench
stereotype
stereotypical
sterile
stern
stick
sticky
stiff
stifling
stiflingly
sting
stinging
stingy
stink
stinks
stodgy
stole
stolen
stomp
stooges
stopper
store
storing
storm
stormy
strain
strained
straining
strange
strangely
stranger
strangest
strenuous
stress
stressful
stricken
strict
strictly
stride
strike
stringently
struck
struggle
struggled
struggles
struggling
strut
stubborn
stuck
stuffy
stumble
stumbled
stump
stumped
stun
stunt
stupid
stupidest
stupidity
stupidly
stupor
sty
style
subdued
subir
subjected
submissive
subordinate
substandard
subtract
succumb
suck
sucked
sucker
sucks
sued
suffer
suffered
sufferer
sufferers
suffering
suffers
suffocate
sugar
suger
suicidal
suicide
sulk
sullen
sunk
sunken
superficial
superficially
superfluous
superstitious
supplier
surrender
surveillance
susceptible
suspect
suspicion
suspicions
suspicious
suspiciously
swamped
sweaty
swipe
swollen
symptoms
syndrome
tacky
tage
tahi
taint
tainted
tam
tamper
tangle
tangled
tank
tap
tapa
taper
tappa
tardy
tare
tarnish
tarnished
tarnishes
tarnishing
tas
tat
tattered
taupe
tawdry
taxing
tease
tedious
tediously
tempe
temper
temple
tempo
temps
temptation
tendance
tense
tension
tentative
tenue
tenuous
tepid
terre
terrible
terribly
terror
terrorism
terrorize
testy
teuer
thicker
thirst
thrash
threat
threaten
threatening
threats
threesome
throbbing
thug
tic
tilt
timid
tin
ting
tipo
tired
tiresome
tiring
toll
topple
torment
tortuous
torture
tortured
torturous
total
touchy
tour
tout
touted
touts
toxic
trace
tragedy
tragic
tragically
tramp
trample
trap
trapped
trash
trashed
trashy
trauma
traumatic
traumatized
travesty
treacherous
trick
tricked
tricky
trio
trist
trivial
trop
troppo
trouble
troubled
troubles
troublesome
troubling
true
tumble
tumbled
tumult
tumultuous
tun
turbulent
turca
turmoil
twist
twisted
twists
type
ugh
ugliest
ugliness
ugly
unable
unacceptable
unacceptably
unaccustomed
unaffordable
unangenehme
unappealing
unattractive
unavailable
unavoidably
unbearable
unbefriedigend
unbelievable
unbelievably
uncaring
uncertain
unclean
unclear
uncomfortable
uncomfortably
uncomfy
uncooperative
uncouth
uncreative
undecided
undercut
underestimate
undermines
underpaid
underpowered
undersized
undesirable
undignified
undone
undue
unease
uneasiness
uneasy
unequal
unethical
uneven
uneventful
unexpected
unexpectedly
unexplained
unfair
unfairly
unfamiliar
unfavorable
unfinished
unforeseen
unforgiving
unfortunate
unfortunately
unfounded
unfreundlich
unfriendly
unfulfilled
unhappily
unhappiness
unhappy
unhealthy
unhelpful
unimaginable
unimaginably
unimportant
uninformed
unique
universal
unjust
unjustifiably
unjustified
unkind
unkindly
unknown
unlawful
unlicensed
unlikely
unlucky
unnecessary
unneeded
unnerve
unnerved
unnerving
unnoticed
unobserved
unorthodox
unpleasant
unpleasantries
unpredictable
unprepared
unproductive
unravel
unraveled
unreachable
unrealistic
unreasonable
unreasonably
unrelenting
unreliability
unreliable
unresolved
unresponsive
unrest
unruly
unsafe
unsatisfactory
unsavory
unscrupulous
unsecure
unseemly
unsettled
unsettling
unskilled
unsophisticated
unstable
unsteady
unsuccessful
unsuccessfully
unsure
unsuspecting
untenable
untimely
untouched
untrue
untrustworthy
untruthful
unusable
unuseable
unusual
unusually
unwanted
unwarranted
unwatchable
unwelcome
unwell
unwilling
unwillingly
unwillingness
unworkable
unworthy
unyielding
upheaval
uproot
upset
upsets
upsetting
urgent
usand
useless
user
utterly
vaca
vag
vagabond
vagrant
vague
vain
val
vanity
vase
vat
vehement
vehemently
venom
venomous
vent
verbraucht
vermeiden
verstopft
vestiges
vibrate
vibrated
vibrating
vibration
vice
vieux
vile
villainous
vino
viola
violation
violent
violently
viper
virus
vita
voce
vociferously
vogue
voll
vomit
vomited
vomiting
vraiment
vulgar
vulnerable
wack
wagon
wail
wallow
waning
warily
warned
warning
warp
warped
wary
waste
wasted
wasteful
wastefulness
wasting
weak
weakness
weaknesses
weariness
weary
wedge
wee
weed
weep
weird
weirdly
wenig
whine
whining
whiny
whores
wicked
wickedly
wig
wild
wildly
wily
wimpy
wince
wobble
wobbled
woe
woeful
woefully
worn
worried
worries
worrisome
worry
worrying
worse
worsen
worsening
worst
worthless
wound
wounds
wrath
wreaked
wreaks
wreck
wrestle
wretched
wrinkle
wrinkled
wrinkles
wrong
wrongful
wrongly
wrought
yawn
yr
zapped
zealous
zero
zombie
