aalto
aas
abandon
abandonne
abate
abgebrochen
abnormal
abominable
abomination
abort
aborted
abrasive
abrupt
abruptly
abscond
absence
absent
absentee
absolutamente
abstraction
absurd
absurdity
absurdly
abuse
abused
abuser
abuses
abusive
abysmal
abysmally
abyss
acces
accident
accidental
accidenti
accidents
accost
accusation
accusations
accuse
accuses
accusing
accusingly
ache
ached
aches
achey
aching
acrid
acrimony
adamant
adamantly
adder
addict
addicted
addicting
addicts
adi
adjacent
admite
admonition
adversarial
adverse
adversity
afflict
affliction
affreux
affront
afraid
afront
aggravate
aggravating
aggravation
aggression
aggressive
aggressiveness
aggrieved
aggrivation
aghast
agobiante
agonize
agonizing
agonizingly
agony
agression
aground
ail
ailing
ailment
aimless
aire
alarm
alarmed
alarming
alarmingly
alas
alboroto
alcoolic
alejado
alergic
ali
alienate
alienated
allas
allegation
allegations
allergic
allergies
allergy
allgemein
aloof
altercation
alto
alue
amara
ambiguity
ambiguous
ambivalence
ambivalent
ambush
amer
amiss
anarchist
anarchy
anemic
anger
angrily
angriness
angry
angst
animosity
ankara
annoy
annoyance
annoyances
annoyed
annoying
annoyingly
annoys
ano
anochecer
anomaly
antagonist
antagonistic
antagonize
anticuado
antiquated
antithetical
anxieties
anxiety
anxious
anxiously
anxiousness
apart
apartado
apathetic
apathetically
apathy
apenas
apocalyptic
appalled
appalling
appallingly
appena
apprehension
apprehensions
apprehensive
aptitude
aquarium
arbitrary
archaic
arduous
arg
argument
argumentative
arid
arm
arnaque
arogant
aroma
arr
arrogance
arrogant
arrogantly
ars
artificial
asap
asco
ashamed
asi
asinine
askance
assault
assertion
assolutamente
assoluto
assult
ast
astray
atone
atrocious
atrocities
atrocity
attack
attacker
attacks
attention
attenzione
audacious
audacity
auster
austere
automne
avalanche
avaricious
averse
aversion
aveugle
aviso
awas
aweful
awful
awfully
awfulness
awkward
awkwardness
ax
babble
babi
backache
backaches
backward
backwoods
bad
badly
baffle
baffled
baffling
baisse
bait
baja
baji
bajo
bajos
bak
balk
balla
balle
balling
ballon
banal
banco
band
bandit
bane
bang
banir
banish
bankrupt
banning
bar
barbar
barbara
barbaric
barbaro
barra
barren
barricade
barro
barulho
bas
bash
bashed
bashful
bashing
basso
bastards
batan
bater
battered
battering
bau
beastly
beat
bebida
bede
bedlam
beg
beggar
begging
beholder
bel
belabor
belated
belie
beligerant
belittle
belittled
belittling
belligerent
bemoan
bemoaning
bemused
bent
berate
bereavement
bereft
beset
besondere
besonders
bestial
beta
betray
betrays
bett
beware
bewildered
bewildering
bewilderment
bias
biased
biases
bic
bicker
bickering
bile
birra
bita
bitch
bitchy
biting
bits
bitten
bitter
bitterly
bitterness
bizarre
bizarro
bizzarro
bla
blab
blablabla
blackmail
blah
blame
bland
blanda
blasphemous
blass
blasted
blatant
blatantly
blauw
bleak
bleed
bleeding
bleeds
blemish
bleu
blind
blinding
blindingly
blink
blister
blistering
bloated
blockage
blockhead
bloodthirsty
bloody
blotchy
blow
bluff
blunder
blunders
blunt
blur
blurred
blurring
blurry
bo
boggle
bogus
boil
boiling
boisterous
bolla
bolle
bolsa
bom
bomb
bomba
bombard
bombastic
bombe
bondage
bonkers
boos
bordel
bore
bored
boredom
boren
bores
boring
boss
bosse
bosses
bot
botch
bother
bothered
bothering
bothers
bothersome
bouchon
bout
bouteille
box
boycott
brag
brainless
brama
branche
brash
brashness
brat
bravado
bravo
brazen
brazenly
breach
break
breakdown
breaking
breaks
breakup
brent
bribery
brittle
broke
broken
broma
brood
bros
bruise
bruised
bruises
bruising
bruit
bruits
brusque
brut
brutal
brutally
brutto
bruyant
bruyante
bs
buckle
buffa
buffo
bug
bugging
buggy
bugs
buio
bulk
bulkier
bulky
bull
bulli
bullies
bully
bullying
bult
bum
bump
bumped
bumping
bumps
bumpy
bunk
burden
burdensome
burlesque
burn
burned
burning
burns
burro
bus
busig
bust
buster
busto
busts
buta
butcher
butchery
butin
buzzing
byzantine
cabane
cabina
cabine
cackle
cadute
cagna
cair
calamity
cale
calibre
callous
calvaire
camino
camper
canal
canasta
cancan
cancer
cancerous
cane
cani
caos
caotico
caprice
capricho
capricious
capsize
car
caracter
caramel
cardenal
careless
carelessness
carente
cargar
caricature
caro
carp
carpe
carrera
cartoonish
cascade
casi
casino
caso
casserole
castello
casual
casualty
catastrofico
catastrophe
catastrophes
catastrophic
catastrophique
cauchemar
caustic
caustically
cautionary
cave
cerda
chafe
chagrin
challenging
chaos
chaotic
chaotisch
charge
charger
charla
chastise
chatter
cheap
cheapen
cheaply
cheat
cheated
cheater
cheating
cheats
checkered
cheerless
cheesy
cher
chicote
chide
childish
chill
chilly
chimenea
chin
chintzy
choc
chock
chok
choke
choppy
chore
chronic
chunky
chute
chutes
cin
cio
citation
citroen
citron
ciudat
clamor
clash
cliche
cliched
clique
cloaca
clog
clogged
clogs
cloud
clouding
cloudy
clueless
clumsy
clunky
coarse
coche
cochon
cocky
coercion
coger
coin
cold
coldly
colibri
collapse
collusion
color
colosal
colossal
combat
combative
combler
combust
comer
comic
comical
commiserate
commonplace
commotion
complacent
complain
complained
complaining
complains
complaint
complaints
complessivo
complesso
complet
completamente
complex
complicate
complicated
complication
complicit
composer
compromis
compulsive
comune
concede
conceded
conceited
concen
concern
concerned
concerns
concession
concessions
concha
concurrent
condemn
condemnation
condemned
condescending
condescendingly
condescension
confess
confession
confined
confiture
conflict
conflicted
conflicting
conflicts
confound
confounded
confront
confrontation
confrontational
confuse
confused
confuses
confusing
confusion
confusions
confuso
congested
congestion
conneries
cons
conscons
conservative
conspicuous
conspicuously
conspiracy
conspire
consternation
contagious
contaminate
contaminated
contaminating
contamination
contempt
contemptuous
contend
contender
contention
contentious
contort
contortions
contradict
contradiction
contradictory
contraint
contratiempos
contre
contrived
controversial
controversy
convoluted
copa
corrente
corrosion
corrupt
corrupted
corruption
corsa
corte
costly
costoso
cotta
couchette
coude
counterproductive
coup
crabby
crack
cracked
cracks
crafty
cramp
cramped
cramping
cranky
crap
crappy
craps
crash
crashed
crashes
crashing
crass
craven
craze
crazily
craziness
crazy
creak
creaking
creaks
creep
creeping
creeps
creepy
crepe
crept
crevasse
crime
crimes
criminal
cringe
cringed
cringes
crippled
crisis
critic
critica
critical
criticar
criticism
criticisms
criticize
criticized
criticizing
critico
critics
critique
critiques
cronic
crook
crooked
crooks
crowded
crowdedness
cru
crud
crude
crudo
cruel
cruelly
cruelty
crumble
crumbling
crummy
crumpled
crumples
crush
crushed
crushing
cry
cueva
culo
culpa
culprit
cumbersome
cuplrit
curse
cursed
curt
curtido
cuss
cussed
cutthroat
cynical
cynicism
dado
damage
damaged
damages
damaging
damm
damn
damned
damning
damp
dampen
damper
danger
dangereux
dangerous
danni
dano
dark
darken
darkened
darker
darkness
dastardly
daunting
dava
dawdle
daze
dazed
dead
deadlock
deadly
deaf
dearth
death
debacle
debatable
debate
debauchery
debilitating
debole
debt
debts
decade
decadence
decadencia
decadent
decadente
decay
decayed
deceit
deceitful
deceive
deceiving
decepcionado
decepcionante
deception
deceptive
deceptively
decline
declines
declining
decrepit
decry
defect
defective
defectos
defects
defensive
defiance
defiantly
deficiencias
deficiencies
deficiency
deficient
deficiente
deficit
deformed
defunct
defy
degenerate
degradation
degrading
deign
dejar
dejected
dejectedly
delay
delayed
delaying
delays
deli
delice
delinquent
delirious
delirium
delude
deluded
deludente
deluge
delusion
delusional
delusione
delusions
deluso
demean
demeaning
demise
demolish
demon
demonic
demoralizing
denial
denied
denies
denigrate
denounce
dens
dense
dent
dente
dented
dents
denuncia
deny
denying
dependent
deplete
deplorable
deplorably
deprave
depraved
depress
depressed
depressing
depressingly
depression
depressions
deprived
derision
derisive
derogatory
desastre
descuidado
desert
desiccated
desis
desolate
desolation
despair
despairing
desperate
desperately
desperation
desperdicios
despicable
despise
despised
despondent
destitute
destitution
destroy
destruction
destructive
desultory
desventajas
deter
deteriorate
deteriorating
deterioration
deterrent
detest
detested
detract
detracted
detracting
detraction
detracts
detriment
detrimental
detrimento
devastate
devastated
devastating
devastatingly
devastation
deviate
deviation
devil
devious
devoid
devora
diablo
diabolical
diabolically
diagram
diamante
diameter
diametrically
diappointed
diatribe
dick
dicker
dictator
died
difetto
difficult
difficulties
difficulty
dificil
dikker
dilapidated
dilema
dilemma
dim
dimmer
ding
dings
dinky
dire
direkt
direkte
dirt
dirtbags
dirty
dis
disable
disabled
disadvantage
disadvantaged
disadvantageous
disadvantages
disagree
disagreeable
disagreed
disagreeing
disagreement
disagrees
disallow
disapointed
disapointing
disapointment
disappoint
disappointed
disappointing
disappointingly
disappointment
disappointments
disappoints
disapprove
disapproving
disarray
disaster
disasterous
disastrous
disastrously
disbelief
discipline
discomfort
disconcerted
disconcerting
disconcertingly
disconfort
discontent
discontented
discontinue
discontinued
discord
discordia
discourage
discouraging
discourteous
discourteously
discredit
discret
discriminate
discrimination
discriminatory
discutable
discuter
disdain
disdainful
disgrace
disgraced
disgraceful
disgracefully
disgruntled
disgust
disgusted
disgusting
disgustingly
disgusto
dishearten
disheartening
dishonest
dishonestly
dishonesty
dishonor
disillusioned
disillusionment
disingenuous
disintegrated
disinterest
disinterested
dislike
disliked
dislikes
disliking
dislocated
dismal
dismally
dismay
dismayed
dismissive
dismissively
disonesto
disorder
disorderly
disordine
disorganized
disoriented
disown
disparage
disparaging
disparagingly
disparate
dispiriting
displace
displaced
displease
displeased
displeasure
disproportionate
disprove
dispute
disputed
disquiet
disquieting
disregard
disreputable
disrespect
disrespectful
disrespectfully
disrespecting
disrupt
disruption
disruptive
diss
dissapointed
dissappointed
dissappointing
dissatisfaction
dissatisfactory
dissatisfied
dissatisfy
dissed
dissention
disservice
dissing
dissolution
dissonant
dissuade
distant
distante
distaste
distasteful
distort
distorted
distract
distracting
distraction
distraught
distress
distressed
distressing
distressingly
distrust
distrustful
distrusting
disturb
disturbance
disturbed
disturbing
disturbingly
divergent
divers
diverse
diverso
division
dizzy
dodgey
doer
dof
doggedly
dol
doldrums
dolente
dolor
dolores
dom
dommage
dommages
dood
doom
doomed
doomsday
dope
dor
dormido
doubt
doubtful
doubts
doute
douteuse
downbeat
downer
downfall
downgrade
downhearted
downhill
downside
downsides
downturn
downturns
dra
drab
draconian
drag
dragged
dragging
dragon
drags
drain
drained
drainer
draining
drains
drap
drastic
drastically
drawback
drawbacks
dread
dreadful
dreadfully
dreary
dringend
dripped
dripping
drippy
drips
dritt
drone
drones
droop
dropouts
drought
drowning
drugs
drunk
drunkard
drunken
dubbi
dubbio
dubios
dubious
dubiously
dud
duda
dudar
dudas
dudoso
duel
dull
dum
duma
dumb
dump
dumped
dumper
dumping
dumps
dun
dungeon
dungeons
dunkel
dupe
duper
dur
dura
dure
duro
dust
dusty
dwindling
dying
earsplitting
eccentric
eccentricity
egge
egocentric
egotistical
egregious
egregiously
ejercicio
elimination
emaciated
embarrass
embarrassing
embarrassingly
embarrassment
embroiled
emergency
emphatic
emphatically
emptiness
encroach
encroachment
endanger
endurance
enemies
enemigo
enemy
energia
eng
engano
engulf
ennui
ennuyeux
enorme
enraged
entanglement
entrap
entrapment
entwerfen
envious
enviously
epidemic
equivocal
erase
erodes
erosion
err
errant
erratic
erratically
erroneous
erroneously
error
errori
errors
erschreckend
esagerare
esagerate
esagerazione
esca
escapade
escape
escasa
espace
espada
espantoso
especialmente
essen
estafa
estilo
estranged
estropeado
estupidez
evade
evasive
evil
evils
evita
evitare
exacerbate
exagerate
exagerated
exaggerate
exaggeration
exasperate
exasperated
exasperating
exasperatingly
exasperation
excentric
excessive
excessively
excessivement
exclusion
excruciating
excruciatingly
excuse
excuses
exhaust
exhausted
exhaustion
exhausts
exhorbitant
exigente
exile
exorbitant
exorbitantly
expel
expensive
experimental
expire
expired
explode
exploit
exploitation
explosion
explosions
explosive
expunge
extender
exterior
exterminate
extermination
extort
extortion
extraneous
extravagance
extravagant
extravagantly
extremist
eyesore
fabrication
facetious
facetiously
fade
faible
fail
failed
failing
faille
fails
failure
failures
faint
fainthearted
faire
fake
fall
falla
fallas
fallen
falling
fallos
fallout
falls
falsch
false
falsely
falso
falt
falta
faltar
falter
faltered
famine
famished
fana
fanatic
fanatical
fanatically
fanatics
fanciful
fanden
fango
farce
farcical
fare
faro
fascist
fastidioso
fastidious
fastidiously
fat
fatal
fateful
fatigue
fatigued
fatiscente
fatto
fatty
fatuous
faul
fault
faults
faulty
faute
faux
favela
faze
fear
fearful
fearfully
fears
fearsome
feber
feeble
fehlt
feign
feint
fell
feo
fermare
fermata
ferociously
ferocity
ferrovia
fet
fetid
fever
feverish
fevers
fiasco
fib
fickle
fiction
fictitious
fidgety
fiend
fiendish
fierce
filete
filo
filth
filthy
finagle
finicky
fire
fist
fix
flabbergasted
flaco
flagging
flagrant
flagrante
flagrantly
flair
flake
flakey
flaking
flaky
flamme
flare
flares
flaunt
flaw
flawed
flaws
flee
fleeing
flees
fleeting
flic
flicker
flickering
flickers
flimsy
flirt
flirty
floored
flop
flounder
floundering
flout
fly
foe
folie
fool
fooled
foolish
foolishly
foolishness
forage
forbid
forbidden
forbidding
forby
forceful
foreboding
forfeit
forged
forgetful
forgetfulness
fori
forlorn
forlornly
formal
fors
forsake
forsaken
fou
foul
foule
foulness
fout
fracaso
fracture
fragile
frail
frantic
frantically
fraud
fraude
fraudulent
fraught
frazzle
frazzled
freak
freaking
freakish
freakishly
freaks
freeze
freezes
freezing
frenetic
frenzied
frenzy
fret
fretful
frets
fretta
friction
fried
frig
friggin
fright
frighten
frightening
frighteningly
frightful
frightfully
frigid
frito
fritto
froid
fromage
frost
frown
froze
frozen
fruitless
fruitlessly
frustrat
frustrate
frustrated
frustrates
frustrating
frustratingly
frustration
frustrations
fudge
fuga
fuir
ful
full
fumar
fumare
fumble
fume
fumes
fumo
funky
funnily
funny
furchtbar
furious
furiously
furt
fury
fuss
fussy
fusty
futile
futilely
futility
fuzzy
gadget
gaff
gaffe
gal
gall
galle
galles
galling
gallo
galls
ganas
gangster
gape
garbage
garish
gasp
gat
gauche
gaudy
gawk
gay
gaz
geezer
gehen
gel
gelato
gelo
gemis
gemischt
genera
ger
gesetzt
getand
getto
ghastly
ghetto
giddy
gift
gigantesque
gimmick
gimmicks
gimmicky
glacial
glare
glaringly
glauque
glib
glitch
glitches
gloom
gloomy
glum
glut
gnawing
goading
goof
goofy
goon
goot
gordo
goreng
gossip
gothique
gourmand
graceless
gracelessly
grade
graft
grainy
granular
grap
gras
grata
grate
grating
grausam
grav
grave
gravely
greasy
greed
greedy
greve
grief
grievance
grievances
grieving
grievous
griglia
grille
grim
grimace
grind
grip
gripe
gripes
gris
grisly
grito
gritty
gros
gross
grossa
grosse
grossly
grosso
grotesque
grotta
grouch
grouchy
groundless
grouse
grove
growl
grudge
grudges
grudging
grudgingly
gruesome
gruff
grumble
grumpier
grumpiest
grumpily
grumpy
grunt
gua
guerrero
guilt
guilty
guincho
gullible
gur
gutter
haag
habitat
hack
hacks
haggard
haggle
hain
hairloss
hake
halfhearted
halfheartedly
halla
hallucinate
halte
halten
halter
hama
hamper
hampered
handicap
handicapped
handling
hang
hangs
haphazard
hapless
harangue
harass
harassed
harasses
harassment
harboring
harbors
hard
harden
hardened
hardship
hardships
harm
harmed
harmful
harms
harried
harsh
harshly
hash
hasseling
hassle
hassled
hassles
haste
hastily
hasty
hata
hate
hated
hateful
hater
haters
hates
hating
hatred
haughtily
haughty
haunt
haunting
haus
havens
havoc
haywire
hazard
hazardous
haze
hazy
headache
headaches
heartbreaker
heartbreaking
heartless
heathen
heck
heckle
heckled
hectic
hed
hedge
hedonistic
hefty
heinous
hel
hell
hells
helpless
helplessness
hemming
hesitant
hestitant
hideous
hideously
hinder
hindrance
hing
hiss
hissed
hissing
hoard
hoax
hobble
hoer
hogs
hol
hollow
homicide
homo
homosexual
honteux
hopeless
hopelessly
hor
hora
horde
horrendous
horrendously
horrible
horribles
horrid
horrific
horrified
horrify
horrifying
hostage
hostile
hostility
hot
hota
hotbeds
hotet
hothouse
hum
humbles
humid
humide
humiliate
humiliating
humiliation
humming
hundido
hung
hurt
hurted
hurtful
hurting
hurts
hustler
huye
hype
hypocrisy
hypocrites
hypocritical
hysteria
hysterical
hysterically
hysterics
iad
idee
idiocy
idiot
idiotas
idiotic
idiotically
idiots
idle
ignorance
ignorant
ignore
illa
illegal
illegally
illicit
illiterate
illness
illogical
illogically
illusion
illusions
ima
imaginar
imaginary
imitation
immaterial
immature
immeuble
imminent
immobile
immoderate
immoral
immovable
impair
impaired
imparfait
impatience
impatient
impatiently
impede
impediment
impending
imperceptible
imperfect
imperfection
imperfections
imperious
impersonal
impersonale
impersonnel
impersonnelle
impertinent
impinge
implacable
implausible
implausibly
implication
impolite
impolitely
impose
imposible
imposing
imposition
impossibile
impossible
impossiblity
impossibly
impotent
impoverished
impractical
imprecise
imprisonment
improper
improperly
impulsive
impunity
inability
inacceptable
inaccesible
inaccessible
inaccuracies
inaccurate
inaceptable
inaction
inactive
inadequacy
inadequate
inadequately
inadvisable
inane
inappropriate
inappropriately
inat
inattentive
inaudible
incapable
incense
incessant
incessantly
incident
incidente
incite
inclement
incoherent
incomoda
incomparable
incompatible
incompetence
incompetent
incompetently
incomplete
incomprehensible
inconceivable
inconceivably
inconfortable
incongruous
incongruously
inconsequential
inconsiderate
inconsistence
inconsistencies
inconsistency
inconsistent
incontournable
inconvenience
inconvenient
inconveniente
inconvenientes
inconveniently
incorrect
incorrectly
incorrigible
incredulous
incredulously
incubo
indecent
indecision
indecisive
indefensible
indeterminate
indiferent
indifference
indifferent
indifferenza
indigent
indignant
indignantly
indignation
indigne
indiscreetly
indiscriminate
indistinguishable
indulge
ineffective
ineffectiveness
ineffectual
ineffectually
inefficiency
inefficient
inept
ineptitude
ineptly
inescapable
inesistente
inevitabile
inevitable
inevitably
inexcusable
inexcusably
inexistant
inexistent
inexperience
inexperienced
inexplicable
infamia
infamous
infantil
infantile
infected
infection
infections
inferior
inferiority
infernal
inferno
infest
infested
infierno
infirm
inflammation
inflated
inflationary
inflexible
inflict
infos
infraction
infractions
infringe
infringement
infuriate
infuriated
infuriating
infuriatingly
ingannare
inganno
ingratitude
inhibit
inhospitable
inhospitality
inhumane
inhumanity
iniquitous
injure
injury
injustice
injusto
innuendo
inoperable
inopportune
inordinate
inordinately
inquiet
insalubre
insane
insanely
insanity
insatiable
insect
insecure
insecurity
insensitive
insidious
insidiously
insignificance
insignificant
insincere
insincerity
insinuate
insinuating
insolence
insolent
insouciance
instigate
insubstantial
insufferable
insufficiency
insufficient
insufficiently
insuffisant
insuffisante
insult
insulted
insulting
insultingly
insults
insuperable
insupportable
insurmountable
intefere
inteferes
intenable
intense
intensiv
intensive
interdiction
interdit
interfere
interference
interferes
intermittent
intern
interrupt
interruption
interruptions
interval
intimidate
intimidating
intimidatingly
intimidation
intolerable
intolerance
intractable
intransigent
intrude
intrusion
intrusive
inundate
inundated
invalid
invalide
invasive
invisible
involuntarily
involuntary
ir
ira
irate
irk
irked
irking
irks
irksome
ironic
ironical
ironically
irony
irrational
irregular
irregularity
irrelevant
irrepressible
irrespectueux
irresponsible
irresponsibly
irretating
irreversible
irrisorio
irritable
irritant
irritate
irritated
irritating
irritation
irritations
iso
isolate
isolated
isolation
issue
issues
itch
itching
itchy
itme
iy
iz
jabber
jaded
jagged
jalousie
jam
jarring
jealous
jealously
jeopardize
jeopardy
jerk
jerky
jitters
jittery
joke
joker
jolt
judder
jumpy
junk
junky
junkyard
kaf
kama
kamala
kamp
kanto
kaos
kaput
kaputt
karg
karp
katastrophal
kaum
kellari
key
kill
killed
killer
killing
kills
kin
kind
kir
kiri
kisko
kitsch
klage
klagen
klein
knife
knipe
knock
knotted
kochen
komisch
kontra
kooky
krap
krass
kris
kudeta
kul
kum
lack
lackadaisical
lacked
lacking
lackluster
lacks
lacunes
ladrones
lag
lagged
lagging
lags
lagunas
laid
lal
lam
lame
lament
lamentable
lang
langsam
languid
languish
lanky
laps
lapse
lapsed
lapses
largo
lascivious
lasse
lasso
last
lat
late
latency
laughable
laughably
laut
lauter
lav
lavandino
lawless
layla
lazo
lazy
leak
leakage
leaking
leaks
leaky
lecherous
leed
leer
leery
lego
leiden
leider
leidet
lejos
leke
lemak
lemon
lengthy
lent
lento
lesa
lethal
lethargic
lethargy
lewd
liability
liable
liaison
liar
liars
lida
lie
lied
liegt
lier
lies
lifeless
lika
lil
limit
limitation
limitations
limitato
limite
limited
limiter
limites
limits
limo
limon
limone
limp
links
liste
listless
lite
literatura
litigare
litigious
livid
loath
loathe
loathing
loba
locker
loco
locura
log
logo
lol
lone
loneliness
lonely
loner
lonesome
long
longing
longingly
longue
lontano
loophole
loos
loose
loot
lop
lose
loser
losers
loses
losing
loss
lossen
losses
lost
lotta
louche
loud
louder
lousy
louve
loveless
lowly
lucha
ludicrous
ludicrously
lugt
lugubrious
luka
lukewarm
lull
lumpur
lumpy
lunatic
lung
lungo
lupa
lurch
lure
lurid
lurk
lurking
lutter
lying
mac
macabre
macchiato
machado
macht
mad
madden
maddening
maddeningly
mademoiselle
madly
madman
madness
mafia
mager
magere
magot
maili
mal
mala
malade
malady
malaise
malas
malcontent
male
males
malheureusement
malice
malicious
malignant
malo
malodorous
maltrato
manca
mancanza
mancha
mane
mangelhaft
mangled
mangler
mangling
mani
mania
maniac
manic
manipulate
manipulation
manipulative
manque
manquer
mar
marchio
marginal
marginally
maria
marmelade
masacre
mashed
massacre
mat
mata
matador
mate
matt
matta
matte
mauvais
mauvaise
meager
meaningless
measly
mediocre
mediocrity
mega
meiden
melodramatic
meltdown
menace
menacing
menial
merciless
mercilessly
merde
mess
messa
messe
messed
messes
messing
messy
meter
mic
micro
midget
miedo
mierda
mies
mild
milieu
militant
minable
mindless
mindlessly
miner
mini
minimo
minuscule
mirage
miros
misaligned
misbehavior
miscalculation
miscellaneous
mischief
mischievous
misconception
misconceptions
miscreants
miser
miserabel
miserable
miserably
miserly
misery
misfortune
misgivings
misguided
mishap
misinformed
misjudge
mislead
misleading
misleadingly
mispronounced
misread
misrepresent
misrepresentation
miss
missed
misses
mist
mistake
mistaken
mistakenly
mistakes
mister
mistress
mistrust
mists
misunderstand
misunderstanding
misunderstandings
misunderstood
misuse
moan
mobbing
mobster
mock
mocked
mockery
mocking
moco
moe
moho
mola
molest
molestar
monotone
monotonous
monotony
monster
monstro
monstrosities
monstrosity
monstrous
moody
moot
mop
mora
morbid
morbidly
moribund
morir
moron
moronic
morons
morose
mortal
mortification
mortified
mote
motionless
motley
motocross
mouse
mousse
muddle
muddy
muerto
muertos
mundane
murder
murderer
murderous
murky
mus
mushy
muso
musty
mysterious
mysteriously
mystery
mystify
myth
mythe
nag
nagging
naiba
naida
naive
naively
nana
nano
narrower
nastily
nastiness
nasty
natur
natura
naughty
nauseating
nauseatingly
naz
nebulous
necessario
needless
needlessly
needy
nefasto
negate
negatie
negatif
negativ
negativa
negative
negativer
negatives
negativi
negativity
negativo
neglect
neglected
negligence
negligent
negro
neka
nemesis
nepotism
nero
nerven
nervous
nervously
nervousness
neurotic
nevel
nie
niggle
niggles
nightmare
nightmarish
nitpick
nitpicking
noir
noise
noises
noisier
noisy
nona
nonexistent
nonostante
nonresponsive
nonsens
nonsense
noot
nosey
nostalgia
nostalgie
notoriety
notorious
notoriously
nov
noxious
nui
nuisance
nul
nulle
numb
numero
nyers
nyonya
obese
objeciones
object
objection
objectionable
objections
objet
oblique
obliterate
obliterated
oblivious
obnoxious
obnoxiously
obscene
obscenely
obscure
obscured
obscures
obsess
obsessive
obsessively
obsolete
obstacle
obstinate
obstruct
obstructed
obstructing
obstruction
obstructs
obtrusive
obtuse
oco
odd
odder
oddest
oddities
oddity
oddly
odeur
odeurs
odor
odore
odori
offence
offend
offender
offending
offense
offensichtlich
offensive
offensively
offer
officious
olio
olor
olores
ominous
ominously
omission
omit
ond
onda
onde
onerous
oneven
onslaught
opaque
opening
opinionated
opponent
opportunistic
oppose
opposition
oppression
oppressive
oppressively
opus
orb
ordeal
ordinaire
original
originale
oro
orphan
orrendo
orribile
oscuro
ostensible
ot
otur
oubli
oublier
outbreak
outburst
outbursts
outcast
outcry
outmoded
outrage
outraged
outrageous
outrageously
outrageousness
outrages
outsider
overbearing
overbearingly
overblown
overdo
overdone
overdrive
overdue
overemphasize
overheat
overkill
overloaded
overlook
overpaid
overplay
overpower
overpriced
overrated
overreach
overrun
overshadow
oversight
oversights
oversimplify
oversize
overstate
overstated
overstatement
overtaxed
overthrow
overweight
overwhelm
overwhelmed
overwhelming
overwhelmingly
overwhelms
overzealous
pagan
pagar
pain
painful
painfull
painfully
paini
paino
pains
pal
pale
pales
palo
paloma
paltry
pan
panache
pandemonium
pander
pandering
panic
panick
panicked
panicking
panicky
panico
panna
parada
paradox
paradoxal
paradoxical
paradoxically
paralyzed
paranoia
paranoid
parar
parasite
parasites
pari
pariah
parrilla
part
parterre
particolare
particular
particulier
partir
pasado
paso
pass
passage
passare
passato
passe
passible
passive
pasticcio
pat
pata
patetico
pathetic
pathetically
patronize
pau
paucity
pauper
pause
pauvre
payback
paz
pazzo
peccato
pech
peculiar
peculiarly
pedantic
peeled
peeve
peeved
peevish
pega
peggio
peggiore
peine
pena
penal
penalize
penalty
pend
penis
penoso
peor
pequeno
perde
perdere
perdre
perdu
perfunctory
peril
perilous
perilously
perish
perplexed
perplexing
perro
persistent
perso
perte
pertinent
perturbed
pervasive
perverse
pervert
perverted
perverts
pesadilla
pesar
pessimism
pessimistic
pest
pesta
pete
petit
petrified
petty
peu
peur
pezzo
phobia
phobic
phony
pia
piano
picchetti
piccolo
picket
picketed
picketing
pickets
picky
pico
pieno
pierde
pig
pigeon
pigs
pimple
pincer
pinch
pine
pior
pip
pipa
pipe
pique
piquet
pire
pis
piso
pisto
piti
pitiful
pitifully
pitoyable
pittance
pity
plage
plague
plano
planter
plasticky
plat
platt
plea
pleas
plight
plinto
plot
plots
ploy
plump
plunder
pobre
poche
poil
pointless
pointlessly
pois
poison
poisonous
pokey
poky
pollute
pollution
polution
polvo
pompa
pompous
poor
poorer
poorest
poorly
poppa
porc
port
porti
porto
portos
ports
pose
poser
post
poste
posterior
posturing
pourri
pout
poveri
poverty
powerless
prada
prat
precarious
precariously
precipitous
predatory
predicament
preface
prejudge
prejudice
prejudices
prejudicial
preoccupy
preocuparse
preposterous
preposterously
presa
preso
presse
presumptuous
pretence
pretend
pretender
pretense
pretentious
pretentiously
pricey
pricier
prick
primitive
primitivo
prins
prison
prisoner
privado
privare
privat
privo
problem
problema
problemas
problematic
probleme
problemen
problemi
problems
procrastination
profane
profanity
prohibit
prohibitive
prohibitively
prole
propaganda
proprietary
protest
protestant
protested
protester
protesting
protests
protracted
provocation
provocative
provoke
pry
puerco
puerto
punch
punish
punitive
punk
puny
puppet
puppets
purtroppo
puss
puta
putred
puzza
puzzled
puzzlement
puzzling
quack
qualm
qualms
quarrel
quarrels
quartier
quash
quasi
queda
queer
queja
quelconque
question
questionable
questione
questions
queue
quibble
quibbles
quitter
rabid
race
racha
racism
racist
racy
rade
radical
radically
rage
ragged
raging
rail
raj
raja
raked
ramp
rampage
rampant
ramshackle
randomly
ranger
rant
ranting
rants
rap
rape
raped
raping
rare
ras
rascals
rash
rater
rattle
rattled
rattles
rau
raving
ray
razzi
reactionary
rebel
rebuke
recalcitrant
recargar
recession
reckless
recklessly
red
reden
redundancy
redundant
refs
refusal
refuse
refused
refuses
refusing
refute
refuted
regreso
regression
regret
regreted
regretful
regretfully
regrets
regrettable
regrettably
regretted
regretter
reisende
reject
rejected
rejecting
rejects
rel
relajarse
relapse
rele
relentless
relentlessly
reluctance
reluctant
reluctantly
rem
remise
remorse
remover
rencontre
rende
rendre
rentable
repel
repetitive
reprehensible
reprehensive
reprimand
reproach
reproche
repugnant
repulse
repulsed
repulsing
repulsive
resent
resentful
resentment
reserva
reservado
resigned
resistance
responsabilidad
rest
reste
restless
restlessness
resto
restos
restreint
restrict
restricted
restriction
restrictive
resultado
resurgent
ret
retaliate
retard
retarded
retards
retenir
reticent
retiro
retourner
retract
retraite
retreat
retreated
rev
revenge
revenir
revert
reviled
revision
revolt
revolting
revoltingly
rhetoric
ride
rides
ridicule
ridicules
ridiculous
ridiculously
rien
rife
rigid
rikki
riled
rim
rip
ripoff
ripped
risk
riski
risks
risky
risque
risques
rist
ritornare
riva
rival
rivalry
rive
rob
robi
robo
robos
rocky
rod
rogue
roh
roken
rollercoaster
rom
romo
romper
ronda
roof
rook
rooster
rop
ropa
ros
rot
roto
rotten
rough
rov
roza
ru
ruba
rubato
rubbish
rude
rue
ruffle
ruido
ruidos
ruidoso
ruin
ruina
ruinas
ruined
ruiner
ruining
ruinous
ruins
ruma
rumbling
rumor
rumori
rumoroso
rumors
rumours
runaway
rupture
ruse
rust
rusty
rut
ruthless
ruthlessly
sabotage
sac
sack
sacrificed
sad
sadden
sade
sadly
sadness
safra
sag
sagged
sagging
saggy
sags
salir
saman
sap
sarang
sarcasm
sarcastic
sarcastically
satan
satire
sauter
sauvage
sav
savage
savaged
savages
scadente
scaly
scam
scams
scandal
scandale
scandalous
scandalously
scant
scar
scarce
scarcely
scarcity
scare
scared
scarier
scariest
scarily
scarred
scars
scarsa
scarsamente
scarso
scary
scathing
sceptic
sceptical
scepticism
schade
schlecht
schlechtem
schlechter
schlechteste
schlicht
schlimmer
schmutzig
schrecklich
schwarz
schwer
scoff
scold
scolded
scolding
scomodo
sconcertato
scoppio
scorching
scorn
scornfully
scortese
scourge
scowl
scramble
scrambled
scrambles
scrambling
scrap
scratch
scratched
scratches
scratchy
scream
screech
screwed
screwy
scuff
scuffs
scum
scummy
scuse
seb
sec
secretive
sed
sedentary
seedy
seethe
seething
segno
sel
selfish
selfishly
senile
sensationalize
senseless
serf
seriousness
serius
servile
setback
setbacks
seul
sever
severe
severity
shabby
shadowy
shady
shake
shaky
shallow
sham
shambles
shame
shameful
shamefully
shameless
shamelessly
shark
sharply
shatter
shimmer
shimmy
shipwreck
shiver
shock
shocked
shocking
shockingly
shoddy
shortage
shortchange
shortcoming
shortcomings
shortness
shortsighted
showdown
shriek
shrill
shroud
shrouded
shrug
shun
shunned
sick
sickening
sickeningly
sickly
sickness
sidetracked
sigaret
signes
signora
signorina
silly
simplist
simplistic
simular
sinful
sinfully
sinister
sink
sinking
sis
sisa
sitio
situation
skeletons
skeptic
skeptical
skeptically
skepticism
sketchy
skimpy
skinny
skit
skittish
sky
slab
slack
slag
slander
slap
slaughter
slaughtered
slave
slaves
sleazy
sleept
slider
slim
slime
slit
slog
slogging
sloooow
slooow
sloppily
sloppy
sloth
slow
slowed
slower
slowest
slowly
slowwww
slug
sluggish
slump
slur
slut
sly
smack
smal
smallish
smash
smear
smell
smelled
smelling
smells
smelly
smelt
smoke
smoldering
smother
smudge
smudged
smudges
smug
smugly
smutty
snag
snagged
snagging
snags
snare
snarky
snarl
sneak
sneakily
sneaky
sneer
sneering
sneeringly
sno
snob
snobbish
snobby
snobish
snobs
snub
soapy
sob
sober
sobering
sobrio
soif
sola
solar
sole
soledad
solemn
solitaire
solitude
solo
somber
sombre
sommaire
sonar
sopa
sordi
sore
sorely
soreness
sorpresa
sorrow
sorrowful
sorry
sot
sottotono
souci
soucis
sour
sourly
spade
spanning
spar
spart
spaventare
spendy
spesso
spew
spewed
spewing
spews
spill
spilling
spite
spiteful
splatter
split
splitting
spoil
spoilage
spoiled
spoilled
spoils
spoken
spookiest
spookily
spooky
spoonfed
sporadic
sporche
sporco
spot
spotty
springa
spurious
sputter
spy
squabble
squash
squeak
squeaks
squeaky
squeal
squealing
squeals
squirm
stab
stag
stagnant
staid
stain
stains
stak
staking
stakk
stale
stalemate
stall
stalle
stalls
stampede
stand
standstill
stank
star
stare
stark
starkly
starr
starter
startle
startling
startlingly
starvation
starve
static
statue
steal
stealing
steals
steep
steeply
steif
steilen
stele
stench
stereotype
stereotypical
stereotypically
steril
sterile
stern
stew
stick
sticky
stiff
stiffness
stifle
stifling
stiflingly
stigma
sting
stinging
stingy
stink
stinks
stodgy
stole
stolen
stomp
stooge
stooges
stopper
store
storing
storm
stormy
stort
stout
straff
strage
strain
strained
straining
strak
strange
strangely
stranger
strangest
strano
stravagante
streaky
streik
strenuous
stres
stress
stresses
stressful
stressi
stretta
strettamente
stretto
stricken
strict
strictly
stride
strident
strike
stringent
struck
struggle
struggled
struggles
struggling
strut
stubborn
stubbornly
stuck
stuffy
stumble
stumbled
stumbles
stump
stumped
stumps
stun
stunt
stupid
stupidest
stupidity
stupidly
stupido
stupor
stuttered
stuttering
stutters
sty
style
stymied
suar
suara
subdued
subir
subjected
subordinate
subservient
substandard
subtract
succumb
sucio
suck
sucked
sucker
sucks
sucky
sued
suffer
suffered
sufferer
sufferers
suffering
suffers
suffocate
sugar
suger
suicidal
suicide
sujo
sulk
sullen
sully
sunk
sunken
superficial
superficially
superficiel
superfluous
superstition
superstitious
superviser
supplier
suppress
suppression
surprenant
surprenante
surrender
surveillance
surveiller
susceptible
susi
suspect
suspicion
suspicions
suspicious
suspiciously
suspiro
swamped
sweaty
swelled
swelling
swindle
swipe
swollen
symptom
symptoms
syndrome
tabe
taber
taboo
tabu
tacky
tage
taint
tainted
tallit
tam
tamper
tangle
tangled
tangles
tank
tanked
tanks
tantrum
tap
tapa
taper
tardif
tardy
tare
tarnish
tarnished
tarnishing
tas
tat
tattered
taunt
taupe
taut
tawdry
taxa
taxation
taxichauffeur
taxing
tease
tedious
temerity
temeroso
tempe
temper
tempesta
temple
tempo
temps
temptation
tendance
tenderness
tenebroso
tense
tension
tentative
tentatively
tenue
tepid
terminar
terra
terre
terreno
terribile
terrible
terriblement
terribly
terror
terrorism
testy
tetchy
teuer
thankless
thicker
thirst
thorny
thoughtless
thoughtlessly
thrash
threat
threaten
threatening
threats
threesome
throb
throbbed
throbbing
throbs
throttle
thug
thwart
tic
tiempo
tierra
tigger
tilt
timbre
timid
timidly
tin
ting
tingling
tipo
tired
tiresome
tiring
toil
toll
topi
topor
topple
tormento
torrent
tortuous
torture
tortured
torturing
torturous
total
totale
totalement
totalitarian
touchy
toughness
tour
tout
touted
touts
toxic
trace
tragedy
tragic
tragically
trai
traindo
trak
trambusto
tramonto
tramp
trange
trap
trappe
trapped
trash
trashed
trashy
trauma
traumatic
traumatized
travesty
treacherous
treacherously
treffen
treiben
trick
tricked
trickery
tricky
trio
trist
triste
tristesse
tristeza
trivial
trompeur
trop
troppo
trots
trotz
trouble
troubled
troublemaker
troubles
troublesome
troubling
trovata
trubbel
truc
trucha
true
tull
tumble
tumbled
tumult
tumultuous
tun
turbulent
turmoil
twist
twisted
twists
type
tyrant
ude
ugh
uglier
ugliest
ugliness
ugly
ulterior
ultimatum
ultimatums
unable
unacceptable
unacceptably
unaccessible
unaccustomed
unaffordable
unangemessen
unangenehme
unappealing
unattractive
unattraktiv
unavailable
unavoidably
unbearable
unbelievable
unbelievably
unbrauchbar
uncaring
uncertain
uncivilized
unclean
unclear
uncomfortable
uncomfortably
uncomfy
uncompetitive
uncompromising
unconfirmed
uncontrolled
unconvincing
unconvincingly
uncooperative
uncouth
undecided
undefined
undependable
undercut
undercuts
underestimate
underlings
undermine
undermined
undermines
underpaid
underpowered
undersized
undesirable
undetermined
undid
undone
undue
unease
uneasily
uneasiness
uneasy
unemployed
unequal
unerwartet
unethical
uneven
uneventful
unexpected
unexpectedly
unexplained
unfair
unfairly
unfaithful
unfamiliar
unfavorable
unfeeling
unfinished
unfit
unforeseen
unforgiving
unfortunate
unfortunately
unfounded
unfreundlich
unfriendly
unfulfilled
ungrateful
unhappily
unhappiness
unhappy
unhealthy
unhelpful
unimaginable
unimaginably
unimportant
uninformed
unintelligible
unique
universal
unjust
unjustifiable
unjustified
unkind
unkindly
unknown
unlawful
unleash
unlicensed
unlikely
unlucky
unmoved
unnatural
unnaturally
unnecessary
unneeded
unnerve
unnerved
unnerving
unnoticed
unpleasant
unpleasantries
unpopular
unpraktisch
unpredictable
unprepared
unproductive
unprofitable
unqualified
unravel
unreachable
unreadable
unrealistic
unreasonable
unreasonably
unrelenting
unrelentingly
unreliable
unresolved
unresponsive
unrest
unruly
unsafe
unsatisfactory
unsavory
unscrupulous
unsecure
unseemly
unsettle
unsettled
unsettling
unsichtbar
unskilled
unsophisticated
unspeakable
unstable
unsteadily
unsteady
unsuccessful
unsuccessfully
unsupported
unsupportive
unsure
unsuspecting
untested
unthinkable
unthinkably
untimely
untouched
untrue
untrustworthy
untruthful
unusable
unuseable
unusual
unusually
unwanted
unwarranted
unwatchable
unwelcome
unwell
unwieldy
unwilling
unwillingly
unwillingness
unwise
unwisely
unworkable
unworthy
unyielding
unzureichend
upheaval
uprising
uproar
upset
upseting
upsets
upsetting
urgent
urgente
usand
usato
useless
user
utterly
vaca
vagabond
vagabondo
vagrant
vague
vain
vainly
val
vale
vall
vallata
valua
vane
vanity
vant
variado
vase
vat
vay
vehement
vehemently
vendetta
vengeance
venom
vent
veraltet
verboten
verdammt
verde
verfallen
vergogna
vergonzoso
verlassen
verloren
vermeiden
vero
verre
vert
verzichten
vestiges
vet
vexing
vibrate
vibrated
vibrates
vibrating
vibration
vice
vicious
viciously
victime
vide
vies
vietato
vieux
vile
villi
vindictive
vingar
vino
viola
violate
violation
violators
violent
violently
virgen
virus
vita
vociferous
vociferously
vogue
voiles
vol
volatile
voler
voll
vomit
vomitare
vomited
vomiting
vomits
vraiment
vulgar
vulnerable
waas
wack
wagon
wahnsinnig
wail
wallow
waning
wanton
warily
wariness
warned
warning
warp
warped
wary
waste
wasted
wasteful
wastefulness
wasting
wayang
wayward
weak
weaken
weakening
weaker
weakness
weaknesses
weariness
weary
wedge
wee
weed
weep
wees
weinen
weird
weirdly
wenig
whimper
whine
whining
whiny
whips
whore
whores
wicked
wickedly
wig
wild
wilde
wildly
wilt
wily
wimpy
wince
wip
wobble
wobbled
woe
woeful
woefully
wolk
womanizing
worn
worried
worries
worrisome
worry
worrying
worryingly
worse
worsen
worsening
worst
worthless
wound
wounds
wrangle
wrath
wreak
wreaked
wreaks
wreck
wrestle
wretched
wretchedly
wrinkle
wrinkled
wrinkles
wripped
wrong
wrongly
wrought
yara
yas
yawn
yok
yr
zap
zapped
zaps
zar
zealous
zeichnen
zero
ziehen
zombie
zucca
